%YAML 1.1
%TAG !u! tag:unity3d.com,2011:
--- !u!74 &7400000
AnimationClip:
  m_ObjectHideFlags: 0
  m_PrefabParentObject: {fileID: 0}
  m_PrefabInternal: {fileID: 0}
  m_Name: girlSpiderEating
  serializedVersion: 6
  m_Legacy: 0
  m_Compressed: 0
  m_UseHighQualityCurve: 1
  m_RotationCurves: []
  m_CompressedRotationCurves: []
  m_EulerCurves: []
  m_PositionCurves: []
  m_ScaleCurves: []
  m_FloatCurves: []
  m_PPtrCurves:
  - curve:
    - time: 0
      value: {fileID: 21300000, guid: f6a5c13b19ae8dd4da5b00335f7e9a91, type: 3}
    - time: 0.083333336
      value: {fileID: 21300000, guid: 2b542e706f4ae7646a4ba2dfb6df0a85, type: 3}
    - time: 0.16666667
      value: {fileID: 21300000, guid: b6a86c74110481547879244f89deae79, type: 3}
    - time: 0.25
      value: {fileID: 21300000, guid: daa16165cbc317a4ca6e01ddfc2c8cd1, type: 3}
    - time: 0.33333334
      value: {fileID: 21300000, guid: 0cb95eab6d9097f418be3685f04893d8, type: 3}
    - time: 0.41666666
      value: {fileID: 21300000, guid: b89be4e3af4062344a589a9c94c96df6, type: 3}
    - time: 0.5
      value: {fileID: 21300000, guid: 5d6f8892b2db1b7479c3c5f4c110add9, type: 3}
    - time: 0.5833333
      value: {fileID: 21300000, guid: 5d6f8892b2db1b7479c3c5f4c110add9, type: 3}
    - time: 0.6666667
      value: {fileID: 21300000, guid: 9779b5412728e6c48ad72f3dfee4d504, type: 3}
    - time: 0.75
      value: {fileID: 21300000, guid: ccb51fc62559d1042a3b350003c0c7e7, type: 3}
    - time: 0.8333333
      value: {fileID: 21300000, guid: 521ac6a77a248bd4193fb1fb27381897, type: 3}
    - time: 0.9166667
      value: {fileID: 21300000, guid: 47a5533bf2f26f6448aff9691808dee1, type: 3}
    - time: 1
      value: {fileID: 21300000, guid: 461a2c198e7e1f643976099baa3463c7, type: 3}
    - time: 1.0833334
      value: {fileID: 21300000, guid: ebccb86cba89a124daee0223c1eb0c4e, type: 3}
    - time: 1.1666666
      value: {fileID: 21300000, guid: 259910f7b70bf7944beaf246588f4298, type: 3}
    - time: 1.25
      value: {fileID: 21300000, guid: eb8c34d927164654f94c12c56d7e3c8f, type: 3}
    - time: 1.3333334
      value: {fileID: 21300000, guid: a7199d3a34af7904988e763ba0898812, type: 3}
    - time: 1.4166666
      value: {fileID: 21300000, guid: eb8c34d927164654f94c12c56d7e3c8f, type: 3}
    - time: 1.5
      value: {fileID: 21300000, guid: a7199d3a34af7904988e763ba0898812, type: 3}
    - time: 1.5833334
      value: {fileID: 21300000, guid: eb8c34d927164654f94c12c56d7e3c8f, type: 3}
    - time: 1.6666666
      value: {fileID: 21300000, guid: a7199d3a34af7904988e763ba0898812, type: 3}
    - time: 1.75
      value: {fileID: 21300000, guid: eb8c34d927164654f94c12c56d7e3c8f, type: 3}
    - time: 1.8333334
      value: {fileID: 21300000, guid: 6a0828e31dc43f245ab281721bd5ba8b, type: 3}
    - time: 1.9166666
      value: {fileID: 21300000, guid: cdf213d3301c4d4489c44c9796bc1ad5, type: 3}
    - time: 2
      value: {fileID: 21300000, guid: 6a0828e31dc43f245ab281721bd5ba8b, type: 3}
    - time: 2.0833333
      value: {fileID: 21300000, guid: eb8c34d927164654f94c12c56d7e3c8f, type: 3}
    attribute: m_Sprite
    path: 
    classID: 212
    script: {fileID: 0}
  m_SampleRate: 12
  m_WrapMode: 0
  m_Bounds:
    m_Center: {x: 0, y: 0, z: 0}
    m_Extent: {x: 0, y: 0, z: 0}
  m_ClipBindingConstant:
    genericBindings:
    - serializedVersion: 2
      path: 0
      attribute: 0
      script: {fileID: 0}
      typeID: 212
      customType: 23
      isPPtrCurve: 1
    pptrCurveMapping:
    - {fileID: 21300000, guid: f6a5c13b19ae8dd4da5b00335f7e9a91, type: 3}
    - {fileID: 21300000, guid: 2b542e706f4ae7646a4ba2dfb6df0a85, type: 3}
    - {fileID: 21300000, guid: b6a86c74110481547879244f89deae79, type: 3}
    - {fileID: 21300000, guid: daa16165cbc317a4ca6e01ddfc2c8cd1, type: 3}
    - {fileID: 21300000, guid: 0cb95eab6d9097f418be3685f04893d8, type: 3}
    - {fileID: 21300000, guid: b89be4e3af4062344a589a9c94c96df6, type: 3}
    - {fileID: 21300000, guid: 5d6f8892b2db1b7479c3c5f4c110add9, type: 3}
    - {fileID: 21300000, guid: 5d6f8892b2db1b7479c3c5f4c110add9, type: 3}
    - {fileID: 21300000, guid: 9779b5412728e6c48ad72f3dfee4d504, type: 3}
    - {fileID: 21300000, guid: ccb51fc62559d1042a3b350003c0c7e7, type: 3}
    - {fileID: 21300000, guid: 521ac6a77a248bd4193fb1fb27381897, type: 3}
    - {fileID: 21300000, guid: 47a5533bf2f26f6448aff9691808dee1, type: 3}
    - {fileID: 21300000, guid: 461a2c198e7e1f643976099baa3463c7, type: 3}
    - {fileID: 21300000, guid: ebccb86cba89a124daee0223c1eb0c4e, type: 3}
    - {fileID: 21300000, guid: 259910f7b70bf7944beaf246588f4298, type: 3}
    - {fileID: 21300000, guid: eb8c34d927164654f94c12c56d7e3c8f, type: 3}
    - {fileID: 21300000, guid: a7199d3a34af7904988e763ba0898812, type: 3}
    - {fileID: 21300000, guid: eb8c34d927164654f94c12c56d7e3c8f, type: 3}
    - {fileID: 21300000, guid: a7199d3a34af7904988e763ba0898812, type: 3}
    - {fileID: 21300000, guid: eb8c34d927164654f94c12c56d7e3c8f, type: 3}
    - {fileID: 21300000, guid: a7199d3a34af7904988e763ba0898812, type: 3}
    - {fileID: 21300000, guid: eb8c34d927164654f94c12c56d7e3c8f, type: 3}
    - {fileID: 21300000, guid: 6a0828e31dc43f245ab281721bd5ba8b, type: 3}
    - {fileID: 21300000, guid: cdf213d3301c4d4489c44c9796bc1ad5, type: 3}
    - {fileID: 21300000, guid: 6a0828e31dc43f245ab281721bd5ba8b, type: 3}
    - {fileID: 21300000, guid: eb8c34d927164654f94c12c56d7e3c8f, type: 3}
  m_AnimationClipSettings:
    serializedVersion: 2
    m_AdditiveReferencePoseClip: {fileID: 0}
    m_AdditiveReferencePoseTime: 0
    m_StartTime: 0
    m_StopTime: 2.1666665
    m_OrientationOffsetY: 0
    m_Level: 0
    m_CycleOffset: 0
    m_HasAdditiveReferencePose: 0
    m_LoopTime: 0
    m_LoopBlend: 0
    m_LoopBlendOrientation: 0
    m_LoopBlendPositionY: 0
    m_LoopBlendPositionXZ: 0
    m_KeepOriginalOrientation: 0
    m_KeepOriginalPositionY: 1
    m_KeepOriginalPositionXZ: 0
    m_HeightFromFeet: 0
    m_Mirror: 0
  m_EditorCurves: []
  m_EulerEditorCurves: []
  m_HasGenericRootTransform: 0
  m_HasMotionFloatCurves: 0
  m_GenerateMotionCurves: 0
  m_Events: []
