%YAML 1.1
%TAG !u! tag:unity3d.com,2011:
--- !u!29 &1
OcclusionCullingSettings:
  m_ObjectHideFlags: 0
  serializedVersion: 2
  m_OcclusionBakeSettings:
    smallestOccluder: 5
    smallestHole: 0.25
    backfaceThreshold: 100
  m_SceneGUID: 00000000000000000000000000000000
  m_OcclusionCullingData: {fileID: 0}
--- !u!104 &2
RenderSettings:
  m_ObjectHideFlags: 0
  serializedVersion: 8
  m_Fog: 0
  m_FogColor: {r: 0.5, g: 0.5, b: 0.5, a: 1}
  m_FogMode: 3
  m_FogDensity: 0.01
  m_LinearFogStart: 0
  m_LinearFogEnd: 300
  m_AmbientSkyColor: {r: 0.212, g: 0.227, b: 0.259, a: 1}
  m_AmbientEquatorColor: {r: 0.114, g: 0.125, b: 0.133, a: 1}
  m_AmbientGroundColor: {r: 0.047, g: 0.043, b: 0.035, a: 1}
  m_AmbientIntensity: 1
  m_AmbientMode: 3
  m_SubtractiveShadowColor: {r: 0.42, g: 0.478, b: 0.627, a: 1}
  m_SkyboxMaterial: {fileID: 0}
  m_HaloStrength: 0.5
  m_FlareStrength: 1
  m_FlareFadeSpeed: 3
  m_HaloTexture: {fileID: 0}
  m_SpotCookie: {fileID: 10001, guid: 0000000000000000e000000000000000, type: 0}
  m_DefaultReflectionMode: 0
  m_DefaultReflectionResolution: 128
  m_ReflectionBounces: 1
  m_ReflectionIntensity: 1
  m_CustomReflection: {fileID: 0}
  m_Sun: {fileID: 0}
  m_IndirectSpecularColor: {r: 0, g: 0, b: 0, a: 1}
--- !u!157 &3
LightmapSettings:
  m_ObjectHideFlags: 0
  serializedVersion: 11
  m_GIWorkflowMode: 1
  m_GISettings:
    serializedVersion: 2
    m_BounceScale: 1
    m_IndirectOutputScale: 1
    m_AlbedoBoost: 1
    m_TemporalCoherenceThreshold: 1
    m_EnvironmentLightingMode: 0
    m_EnableBakedLightmaps: 0
    m_EnableRealtimeLightmaps: 0
  m_LightmapEditorSettings:
    serializedVersion: 9
    m_Resolution: 2
    m_BakeResolution: 40
    m_TextureWidth: 1024
    m_TextureHeight: 1024
    m_AO: 0
    m_AOMaxDistance: 1
    m_CompAOExponent: 1
    m_CompAOExponentDirect: 0
    m_Padding: 2
    m_LightmapParameters: {fileID: 0}
    m_LightmapsBakeMode: 1
    m_TextureCompression: 1
    m_FinalGather: 0
    m_FinalGatherFiltering: 1
    m_FinalGatherRayCount: 256
    m_ReflectionCompression: 2
    m_MixedBakeMode: 2
    m_BakeBackend: 0
    m_PVRSampling: 1
    m_PVRDirectSampleCount: 32
    m_PVRSampleCount: 500
    m_PVRBounces: 2
    m_PVRFilterTypeDirect: 0
    m_PVRFilterTypeIndirect: 0
    m_PVRFilterTypeAO: 0
    m_PVRFilteringMode: 1
    m_PVRCulling: 1
    m_PVRFilteringGaussRadiusDirect: 1
    m_PVRFilteringGaussRadiusIndirect: 5
    m_PVRFilteringGaussRadiusAO: 2
    m_PVRFilteringAtrousPositionSigmaDirect: 0.5
    m_PVRFilteringAtrousPositionSigmaIndirect: 2
    m_PVRFilteringAtrousPositionSigmaAO: 1
    m_ShowResolutionOverlay: 1
  m_LightingDataAsset: {fileID: 0}
  m_UseShadowmask: 1
--- !u!196 &4
NavMeshSettings:
  serializedVersion: 2
  m_ObjectHideFlags: 0
  m_BuildSettings:
    serializedVersion: 2
    agentTypeID: 0
    agentRadius: 0.5
    agentHeight: 2
    agentSlope: 45
    agentClimb: 0.4
    ledgeDropHeight: 0
    maxJumpAcrossDistance: 0
    minRegionArea: 2
    manualCellSize: 0
    cellSize: 0.16666667
    manualTileSize: 0
    tileSize: 256
    accuratePlacement: 0
    debug:
      m_Flags: 0
  m_NavMeshData: {fileID: 0}
--- !u!1001 &173243673
Prefab:
  m_ObjectHideFlags: 0
  serializedVersion: 2
  m_Modification:
    m_TransformParent: {fileID: 0}
    m_Modifications:
    - target: {fileID: 4637328107831482, guid: 8d53a262cf39ba04bb69f9423ee4813e, type: 2}
      propertyPath: m_LocalPosition.x
      value: -0.93
      objectReference: {fileID: 0}
    - target: {fileID: 4637328107831482, guid: 8d53a262cf39ba04bb69f9423ee4813e, type: 2}
      propertyPath: m_LocalPosition.y
      value: 10.05
      objectReference: {fileID: 0}
    - target: {fileID: 4637328107831482, guid: 8d53a262cf39ba04bb69f9423ee4813e, type: 2}
      propertyPath: m_LocalPosition.z
      value: 0
      objectReference: {fileID: 0}
    - target: {fileID: 4637328107831482, guid: 8d53a262cf39ba04bb69f9423ee4813e, type: 2}
      propertyPath: m_LocalRotation.x
      value: 0
      objectReference: {fileID: 0}
    - target: {fileID: 4637328107831482, guid: 8d53a262cf39ba04bb69f9423ee4813e, type: 2}
      propertyPath: m_LocalRotation.y
      value: 0
      objectReference: {fileID: 0}
    - target: {fileID: 4637328107831482, guid: 8d53a262cf39ba04bb69f9423ee4813e, type: 2}
      propertyPath: m_LocalRotation.z
      value: 0.7071068
      objectReference: {fileID: 0}
    - target: {fileID: 4637328107831482, guid: 8d53a262cf39ba04bb69f9423ee4813e, type: 2}
      propertyPath: m_LocalRotation.w
      value: 0.7071068
      objectReference: {fileID: 0}
    - target: {fileID: 4637328107831482, guid: 8d53a262cf39ba04bb69f9423ee4813e, type: 2}
      propertyPath: m_RootOrder
      value: 24
      objectReference: {fileID: 0}
    - target: {fileID: 4637328107831482, guid: 8d53a262cf39ba04bb69f9423ee4813e, type: 2}
      propertyPath: m_LocalScale.x
      value: 0.1
      objectReference: {fileID: 0}
    - target: {fileID: 4637328107831482, guid: 8d53a262cf39ba04bb69f9423ee4813e, type: 2}
      propertyPath: m_LocalScale.y
      value: 0.5
      objectReference: {fileID: 0}
    - target: {fileID: 1952469506270768, guid: 8d53a262cf39ba04bb69f9423ee4813e, type: 2}
      propertyPath: m_Name
      value: webbable (6)
      objectReference: {fileID: 0}
    - target: {fileID: 212536985337987760, guid: 8d53a262cf39ba04bb69f9423ee4813e,
        type: 2}
      propertyPath: m_SortingLayerID
      value: 64494287
      objectReference: {fileID: 0}
    - target: {fileID: 212536985337987760, guid: 8d53a262cf39ba04bb69f9423ee4813e,
        type: 2}
      propertyPath: m_SortingLayer
      value: 1
      objectReference: {fileID: 0}
    - target: {fileID: 4637328107831482, guid: 8d53a262cf39ba04bb69f9423ee4813e, type: 2}
      propertyPath: m_LocalEulerAnglesHint.z
      value: 90
      objectReference: {fileID: 0}
    - target: {fileID: 114282512835830560, guid: 8d53a262cf39ba04bb69f9423ee4813e,
        type: 2}
      propertyPath: IsSticky
      value: 1
      objectReference: {fileID: 0}
    m_RemovedComponents: []
  m_ParentPrefab: {fileID: 100100000, guid: 8d53a262cf39ba04bb69f9423ee4813e, type: 2}
  m_IsPrefabParent: 0
--- !u!1001 &187855944
Prefab:
  m_ObjectHideFlags: 0
  serializedVersion: 2
  m_Modification:
    m_TransformParent: {fileID: 0}
    m_Modifications:
    - target: {fileID: 4513404051189890, guid: ffa66ec550fdc8e43a58d3ff415c507c, type: 2}
      propertyPath: m_LocalPosition.x
      value: -1.008
      objectReference: {fileID: 0}
    - target: {fileID: 4513404051189890, guid: ffa66ec550fdc8e43a58d3ff415c507c, type: 2}
      propertyPath: m_LocalPosition.y
      value: -1.42
      objectReference: {fileID: 0}
    - target: {fileID: 4513404051189890, guid: ffa66ec550fdc8e43a58d3ff415c507c, type: 2}
      propertyPath: m_LocalPosition.z
      value: 0
      objectReference: {fileID: 0}
    - target: {fileID: 4513404051189890, guid: ffa66ec550fdc8e43a58d3ff415c507c, type: 2}
      propertyPath: m_LocalRotation.x
      value: 0
      objectReference: {fileID: 0}
    - target: {fileID: 4513404051189890, guid: ffa66ec550fdc8e43a58d3ff415c507c, type: 2}
      propertyPath: m_LocalRotation.y
      value: 0
      objectReference: {fileID: 0}
    - target: {fileID: 4513404051189890, guid: ffa66ec550fdc8e43a58d3ff415c507c, type: 2}
      propertyPath: m_LocalRotation.z
      value: 0
      objectReference: {fileID: 0}
    - target: {fileID: 4513404051189890, guid: ffa66ec550fdc8e43a58d3ff415c507c, type: 2}
      propertyPath: m_LocalRotation.w
      value: 1
      objectReference: {fileID: 0}
    - target: {fileID: 4513404051189890, guid: ffa66ec550fdc8e43a58d3ff415c507c, type: 2}
      propertyPath: m_RootOrder
      value: 10
      objectReference: {fileID: 0}
    - target: {fileID: 1037391050915306, guid: ffa66ec550fdc8e43a58d3ff415c507c, type: 2}
      propertyPath: m_Name
      value: floor (2)
      objectReference: {fileID: 0}
    - target: {fileID: 4513404051189890, guid: ffa66ec550fdc8e43a58d3ff415c507c, type: 2}
      propertyPath: m_LocalScale.x
      value: 1.2
      objectReference: {fileID: 0}
    m_RemovedComponents: []
  m_ParentPrefab: {fileID: 100100000, guid: ffa66ec550fdc8e43a58d3ff415c507c, type: 2}
  m_IsPrefabParent: 0
--- !u!1001 &226799645
Prefab:
  m_ObjectHideFlags: 0
  serializedVersion: 2
  m_Modification:
    m_TransformParent: {fileID: 0}
    m_Modifications:
    - target: {fileID: 4513404051189890, guid: ffa66ec550fdc8e43a58d3ff415c507c, type: 2}
      propertyPath: m_LocalPosition.x
      value: -1.4
      objectReference: {fileID: 0}
    - target: {fileID: 4513404051189890, guid: ffa66ec550fdc8e43a58d3ff415c507c, type: 2}
      propertyPath: m_LocalPosition.y
      value: 0.44
      objectReference: {fileID: 0}
    - target: {fileID: 4513404051189890, guid: ffa66ec550fdc8e43a58d3ff415c507c, type: 2}
      propertyPath: m_LocalPosition.z
      value: 0
      objectReference: {fileID: 0}
    - target: {fileID: 4513404051189890, guid: ffa66ec550fdc8e43a58d3ff415c507c, type: 2}
      propertyPath: m_LocalRotation.x
      value: 0
      objectReference: {fileID: 0}
    - target: {fileID: 4513404051189890, guid: ffa66ec550fdc8e43a58d3ff415c507c, type: 2}
      propertyPath: m_LocalRotation.y
      value: 0
      objectReference: {fileID: 0}
    - target: {fileID: 4513404051189890, guid: ffa66ec550fdc8e43a58d3ff415c507c, type: 2}
      propertyPath: m_LocalRotation.z
      value: 0
      objectReference: {fileID: 0}
    - target: {fileID: 4513404051189890, guid: ffa66ec550fdc8e43a58d3ff415c507c, type: 2}
      propertyPath: m_LocalRotation.w
      value: 1
      objectReference: {fileID: 0}
    - target: {fileID: 4513404051189890, guid: ffa66ec550fdc8e43a58d3ff415c507c, type: 2}
      propertyPath: m_RootOrder
      value: 11
      objectReference: {fileID: 0}
    - target: {fileID: 1037391050915306, guid: ffa66ec550fdc8e43a58d3ff415c507c, type: 2}
      propertyPath: m_Name
      value: floor (3)
      objectReference: {fileID: 0}
    - target: {fileID: 4513404051189890, guid: ffa66ec550fdc8e43a58d3ff415c507c, type: 2}
      propertyPath: m_LocalScale.x
      value: 0.6
      objectReference: {fileID: 0}
    m_RemovedComponents: []
  m_ParentPrefab: {fileID: 100100000, guid: ffa66ec550fdc8e43a58d3ff415c507c, type: 2}
  m_IsPrefabParent: 0
--- !u!1001 &229087659
Prefab:
  m_ObjectHideFlags: 0
  serializedVersion: 2
  m_Modification:
    m_TransformParent: {fileID: 0}
    m_Modifications:
    - target: {fileID: 114974082464622064, guid: 0fc766440d5036a449ab189efd67a58e,
        type: 2}
      propertyPath: Targets.Array.size
      value: 2
      objectReference: {fileID: 0}
    - target: {fileID: 114802626599984932, guid: 0fc766440d5036a449ab189efd67a58e,
        type: 2}
      propertyPath: OnActivateEvent.m_PersistentCalls.m_Calls.Array.size
      value: 1
      objectReference: {fileID: 0}
    - target: {fileID: 4942436780290386, guid: 0fc766440d5036a449ab189efd67a58e, type: 2}
      propertyPath: m_LocalPosition.x
      value: -2.675
      objectReference: {fileID: 0}
    - target: {fileID: 4942436780290386, guid: 0fc766440d5036a449ab189efd67a58e, type: 2}
      propertyPath: m_LocalPosition.y
      value: -1.42
      objectReference: {fileID: 0}
    - target: {fileID: 4942436780290386, guid: 0fc766440d5036a449ab189efd67a58e, type: 2}
      propertyPath: m_LocalPosition.z
      value: 0
      objectReference: {fileID: 0}
    - target: {fileID: 4942436780290386, guid: 0fc766440d5036a449ab189efd67a58e, type: 2}
      propertyPath: m_LocalRotation.x
      value: 0
      objectReference: {fileID: 0}
    - target: {fileID: 4942436780290386, guid: 0fc766440d5036a449ab189efd67a58e, type: 2}
      propertyPath: m_LocalRotation.y
      value: 0
      objectReference: {fileID: 0}
    - target: {fileID: 4942436780290386, guid: 0fc766440d5036a449ab189efd67a58e, type: 2}
      propertyPath: m_LocalRotation.z
      value: 0
      objectReference: {fileID: 0}
    - target: {fileID: 4942436780290386, guid: 0fc766440d5036a449ab189efd67a58e, type: 2}
      propertyPath: m_LocalRotation.w
      value: 1
      objectReference: {fileID: 0}
    - target: {fileID: 4942436780290386, guid: 0fc766440d5036a449ab189efd67a58e, type: 2}
      propertyPath: m_RootOrder
      value: 8
      objectReference: {fileID: 0}
    - target: {fileID: 114802626599984932, guid: 0fc766440d5036a449ab189efd67a58e,
        type: 2}
      propertyPath: OnActivateEvent.m_PersistentCalls.m_Calls.Array.data[0].m_Mode
      value: 3
      objectReference: {fileID: 0}
    - target: {fileID: 114802626599984932, guid: 0fc766440d5036a449ab189efd67a58e,
        type: 2}
      propertyPath: OnActivateEvent.m_PersistentCalls.m_Calls.Array.data[0].m_CallState
      value: 2
      objectReference: {fileID: 0}
    - target: {fileID: 114802626599984932, guid: 0fc766440d5036a449ab189efd67a58e,
        type: 2}
      propertyPath: OnActivateEvent.m_PersistentCalls.m_Calls.Array.data[0].m_Target
      value: 
      objectReference: {fileID: 1550205808}
    - target: {fileID: 114802626599984932, guid: 0fc766440d5036a449ab189efd67a58e,
        type: 2}
      propertyPath: OnActivateEvent.m_PersistentCalls.m_Calls.Array.data[0].m_MethodName
      value: GoTo
      objectReference: {fileID: 0}
    - target: {fileID: 114802626599984932, guid: 0fc766440d5036a449ab189efd67a58e,
        type: 2}
      propertyPath: OnActivateEvent.m_PersistentCalls.m_Calls.Array.data[0].m_Arguments.m_ObjectArgumentAssemblyTypeName
      value: UnityEngine.Object, UnityEngine
      objectReference: {fileID: 0}
    - target: {fileID: 114974082464622064, guid: 0fc766440d5036a449ab189efd67a58e,
        type: 2}
      propertyPath: Targets.Array.data[0].x
      value: -2.55
      objectReference: {fileID: 0}
    - target: {fileID: 114974082464622064, guid: 0fc766440d5036a449ab189efd67a58e,
        type: 2}
      propertyPath: Targets.Array.data[0].y
      value: 0.44
      objectReference: {fileID: 0}
    m_RemovedComponents: []
  m_ParentPrefab: {fileID: 100100000, guid: 0fc766440d5036a449ab189efd67a58e, type: 2}
  m_IsPrefabParent: 0
--- !u!1001 &377432233
Prefab:
  m_ObjectHideFlags: 0
  serializedVersion: 2
  m_Modification:
    m_TransformParent: {fileID: 0}
    m_Modifications:
    - target: {fileID: 4513404051189890, guid: ffa66ec550fdc8e43a58d3ff415c507c, type: 2}
      propertyPath: m_LocalPosition.x
      value: 2.26
      objectReference: {fileID: 0}
    - target: {fileID: 4513404051189890, guid: ffa66ec550fdc8e43a58d3ff415c507c, type: 2}
      propertyPath: m_LocalPosition.y
      value: 0.44
      objectReference: {fileID: 0}
    - target: {fileID: 4513404051189890, guid: ffa66ec550fdc8e43a58d3ff415c507c, type: 2}
      propertyPath: m_LocalPosition.z
      value: 0
      objectReference: {fileID: 0}
    - target: {fileID: 4513404051189890, guid: ffa66ec550fdc8e43a58d3ff415c507c, type: 2}
      propertyPath: m_LocalRotation.x
      value: 0
      objectReference: {fileID: 0}
    - target: {fileID: 4513404051189890, guid: ffa66ec550fdc8e43a58d3ff415c507c, type: 2}
      propertyPath: m_LocalRotation.y
      value: 0
      objectReference: {fileID: 0}
    - target: {fileID: 4513404051189890, guid: ffa66ec550fdc8e43a58d3ff415c507c, type: 2}
      propertyPath: m_LocalRotation.z
      value: 0
      objectReference: {fileID: 0}
    - target: {fileID: 4513404051189890, guid: ffa66ec550fdc8e43a58d3ff415c507c, type: 2}
      propertyPath: m_LocalRotation.w
      value: 1
      objectReference: {fileID: 0}
    - target: {fileID: 4513404051189890, guid: ffa66ec550fdc8e43a58d3ff415c507c, type: 2}
      propertyPath: m_RootOrder
      value: 14
      objectReference: {fileID: 0}
    - target: {fileID: 1037391050915306, guid: ffa66ec550fdc8e43a58d3ff415c507c, type: 2}
      propertyPath: m_Name
      value: floor (4)
      objectReference: {fileID: 0}
    m_RemovedComponents: []
  m_ParentPrefab: {fileID: 100100000, guid: ffa66ec550fdc8e43a58d3ff415c507c, type: 2}
  m_IsPrefabParent: 0
--- !u!1001 &471073000
Prefab:
  m_ObjectHideFlags: 0
  serializedVersion: 2
  m_Modification:
    m_TransformParent: {fileID: 0}
    m_Modifications:
    - target: {fileID: 4513404051189890, guid: ffa66ec550fdc8e43a58d3ff415c507c, type: 2}
      propertyPath: m_LocalPosition.x
      value: 2.33
      objectReference: {fileID: 0}
    - target: {fileID: 4513404051189890, guid: ffa66ec550fdc8e43a58d3ff415c507c, type: 2}
      propertyPath: m_LocalPosition.y
      value: 5.5
      objectReference: {fileID: 0}
    - target: {fileID: 4513404051189890, guid: ffa66ec550fdc8e43a58d3ff415c507c, type: 2}
      propertyPath: m_LocalPosition.z
      value: 0
      objectReference: {fileID: 0}
    - target: {fileID: 4513404051189890, guid: ffa66ec550fdc8e43a58d3ff415c507c, type: 2}
      propertyPath: m_LocalRotation.x
      value: 0
      objectReference: {fileID: 0}
    - target: {fileID: 4513404051189890, guid: ffa66ec550fdc8e43a58d3ff415c507c, type: 2}
      propertyPath: m_LocalRotation.y
      value: 0
      objectReference: {fileID: 0}
    - target: {fileID: 4513404051189890, guid: ffa66ec550fdc8e43a58d3ff415c507c, type: 2}
      propertyPath: m_LocalRotation.z
      value: 0.7071068
      objectReference: {fileID: 0}
    - target: {fileID: 4513404051189890, guid: ffa66ec550fdc8e43a58d3ff415c507c, type: 2}
      propertyPath: m_LocalRotation.w
      value: 0.7071068
      objectReference: {fileID: 0}
    - target: {fileID: 4513404051189890, guid: ffa66ec550fdc8e43a58d3ff415c507c, type: 2}
      propertyPath: m_RootOrder
      value: 16
      objectReference: {fileID: 0}
    - target: {fileID: 1037391050915306, guid: ffa66ec550fdc8e43a58d3ff415c507c, type: 2}
      propertyPath: m_Name
      value: floor (6)
      objectReference: {fileID: 0}
    - target: {fileID: 4513404051189890, guid: ffa66ec550fdc8e43a58d3ff415c507c, type: 2}
      propertyPath: m_LocalEulerAnglesHint.z
      value: 90
      objectReference: {fileID: 0}
    - target: {fileID: 4513404051189890, guid: ffa66ec550fdc8e43a58d3ff415c507c, type: 2}
      propertyPath: m_LocalScale.x
      value: 3
      objectReference: {fileID: 0}
    m_RemovedComponents: []
  m_ParentPrefab: {fileID: 100100000, guid: ffa66ec550fdc8e43a58d3ff415c507c, type: 2}
  m_IsPrefabParent: 0
--- !u!1001 &511786370
Prefab:
  m_ObjectHideFlags: 0
  serializedVersion: 2
  m_Modification:
    m_TransformParent: {fileID: 0}
    m_Modifications:
    - target: {fileID: 4637328107831482, guid: 8d53a262cf39ba04bb69f9423ee4813e, type: 2}
      propertyPath: m_LocalPosition.x
      value: 2.11
      objectReference: {fileID: 0}
    - target: {fileID: 4637328107831482, guid: 8d53a262cf39ba04bb69f9423ee4813e, type: 2}
      propertyPath: m_LocalPosition.y
      value: 0.28
      objectReference: {fileID: 0}
    - target: {fileID: 4637328107831482, guid: 8d53a262cf39ba04bb69f9423ee4813e, type: 2}
      propertyPath: m_LocalPosition.z
      value: 0
      objectReference: {fileID: 0}
    - target: {fileID: 4637328107831482, guid: 8d53a262cf39ba04bb69f9423ee4813e, type: 2}
      propertyPath: m_LocalRotation.x
      value: 0
      objectReference: {fileID: 0}
    - target: {fileID: 4637328107831482, guid: 8d53a262cf39ba04bb69f9423ee4813e, type: 2}
      propertyPath: m_LocalRotation.y
      value: 0
      objectReference: {fileID: 0}
    - target: {fileID: 4637328107831482, guid: 8d53a262cf39ba04bb69f9423ee4813e, type: 2}
      propertyPath: m_LocalRotation.z
      value: 0.7071068
      objectReference: {fileID: 0}
    - target: {fileID: 4637328107831482, guid: 8d53a262cf39ba04bb69f9423ee4813e, type: 2}
      propertyPath: m_LocalRotation.w
      value: 0.7071068
      objectReference: {fileID: 0}
    - target: {fileID: 4637328107831482, guid: 8d53a262cf39ba04bb69f9423ee4813e, type: 2}
      propertyPath: m_RootOrder
      value: 2
      objectReference: {fileID: 0}
    - target: {fileID: 4637328107831482, guid: 8d53a262cf39ba04bb69f9423ee4813e, type: 2}
      propertyPath: m_LocalScale.x
      value: 0.1
      objectReference: {fileID: 0}
    - target: {fileID: 4637328107831482, guid: 8d53a262cf39ba04bb69f9423ee4813e, type: 2}
      propertyPath: m_LocalScale.y
      value: 0.5
      objectReference: {fileID: 0}
    - target: {fileID: 114282512835830560, guid: 8d53a262cf39ba04bb69f9423ee4813e,
        type: 2}
      propertyPath: IsSticky
      value: 1
      objectReference: {fileID: 0}
    - target: {fileID: 4637328107831482, guid: 8d53a262cf39ba04bb69f9423ee4813e, type: 2}
      propertyPath: m_LocalEulerAnglesHint.z
      value: 90
      objectReference: {fileID: 0}
    m_RemovedComponents: []
  m_ParentPrefab: {fileID: 100100000, guid: 8d53a262cf39ba04bb69f9423ee4813e, type: 2}
  m_IsPrefabParent: 0
--- !u!1001 &555719513
Prefab:
  m_ObjectHideFlags: 0
  serializedVersion: 2
  m_Modification:
    m_TransformParent: {fileID: 0}
    m_Modifications:
    - target: {fileID: 4513404051189890, guid: ffa66ec550fdc8e43a58d3ff415c507c, type: 2}
      propertyPath: m_LocalPosition.x
      value: 0
      objectReference: {fileID: 0}
    - target: {fileID: 4513404051189890, guid: ffa66ec550fdc8e43a58d3ff415c507c, type: 2}
      propertyPath: m_LocalPosition.y
      value: 13
      objectReference: {fileID: 0}
    - target: {fileID: 4513404051189890, guid: ffa66ec550fdc8e43a58d3ff415c507c, type: 2}
      propertyPath: m_LocalPosition.z
      value: 0
      objectReference: {fileID: 0}
    - target: {fileID: 4513404051189890, guid: ffa66ec550fdc8e43a58d3ff415c507c, type: 2}
      propertyPath: m_LocalRotation.x
      value: 0
      objectReference: {fileID: 0}
    - target: {fileID: 4513404051189890, guid: ffa66ec550fdc8e43a58d3ff415c507c, type: 2}
      propertyPath: m_LocalRotation.y
      value: 0
      objectReference: {fileID: 0}
    - target: {fileID: 4513404051189890, guid: ffa66ec550fdc8e43a58d3ff415c507c, type: 2}
      propertyPath: m_LocalRotation.z
      value: 0
      objectReference: {fileID: 0}
    - target: {fileID: 4513404051189890, guid: ffa66ec550fdc8e43a58d3ff415c507c, type: 2}
      propertyPath: m_LocalRotation.w
      value: 1
      objectReference: {fileID: 0}
    - target: {fileID: 4513404051189890, guid: ffa66ec550fdc8e43a58d3ff415c507c, type: 2}
      propertyPath: m_RootOrder
      value: 26
      objectReference: {fileID: 0}
    - target: {fileID: 1037391050915306, guid: ffa66ec550fdc8e43a58d3ff415c507c, type: 2}
      propertyPath: m_Name
      value: floor (9)
      objectReference: {fileID: 0}
    - target: {fileID: 4513404051189890, guid: ffa66ec550fdc8e43a58d3ff415c507c, type: 2}
      propertyPath: m_LocalScale.x
      value: 4
      objectReference: {fileID: 0}
    m_RemovedComponents: []
  m_ParentPrefab: {fileID: 100100000, guid: ffa66ec550fdc8e43a58d3ff415c507c, type: 2}
  m_IsPrefabParent: 0
--- !u!1001 &621532250
Prefab:
  m_ObjectHideFlags: 0
  serializedVersion: 2
  m_Modification:
    m_TransformParent: {fileID: 0}
    m_Modifications:
    - target: {fileID: 4690428390058050, guid: c5ae5f689daa33a408cb041d7058e0eb, type: 2}
      propertyPath: m_LocalPosition.x
      value: 0
      objectReference: {fileID: 0}
    - target: {fileID: 4690428390058050, guid: c5ae5f689daa33a408cb041d7058e0eb, type: 2}
      propertyPath: m_LocalPosition.y
      value: 0
      objectReference: {fileID: 0}
    - target: {fileID: 4690428390058050, guid: c5ae5f689daa33a408cb041d7058e0eb, type: 2}
      propertyPath: m_LocalPosition.z
      value: -10
      objectReference: {fileID: 0}
    - target: {fileID: 4690428390058050, guid: c5ae5f689daa33a408cb041d7058e0eb, type: 2}
      propertyPath: m_LocalRotation.x
      value: 0
      objectReference: {fileID: 0}
    - target: {fileID: 4690428390058050, guid: c5ae5f689daa33a408cb041d7058e0eb, type: 2}
      propertyPath: m_LocalRotation.y
      value: 0
      objectReference: {fileID: 0}
    - target: {fileID: 4690428390058050, guid: c5ae5f689daa33a408cb041d7058e0eb, type: 2}
      propertyPath: m_LocalRotation.z
      value: 0
      objectReference: {fileID: 0}
    - target: {fileID: 4690428390058050, guid: c5ae5f689daa33a408cb041d7058e0eb, type: 2}
      propertyPath: m_LocalRotation.w
      value: 1
      objectReference: {fileID: 0}
    - target: {fileID: 4690428390058050, guid: c5ae5f689daa33a408cb041d7058e0eb, type: 2}
      propertyPath: m_RootOrder
      value: 0
      objectReference: {fileID: 0}
    - target: {fileID: 114951234119215986, guid: c5ae5f689daa33a408cb041d7058e0eb,
        type: 2}
      propertyPath: player
      value: 
      objectReference: {fileID: 1008852248}
    - target: {fileID: 114951234119215986, guid: c5ae5f689daa33a408cb041d7058e0eb,
        type: 2}
      propertyPath: HighestCameraY
      value: 8.3
      objectReference: {fileID: 0}
    m_RemovedComponents: []
  m_ParentPrefab: {fileID: 100100000, guid: c5ae5f689daa33a408cb041d7058e0eb, type: 2}
  m_IsPrefabParent: 0
--- !u!1001 &678940179
Prefab:
  m_ObjectHideFlags: 0
  serializedVersion: 2
  m_Modification:
    m_TransformParent: {fileID: 0}
    m_Modifications:
    - target: {fileID: 4218508266327450, guid: eb861781884145a4ab1a0ccf39ffddad, type: 2}
      propertyPath: m_LocalPosition.x
      value: 1
      objectReference: {fileID: 0}
    - target: {fileID: 4218508266327450, guid: eb861781884145a4ab1a0ccf39ffddad, type: 2}
      propertyPath: m_LocalPosition.y
      value: 0.07
      objectReference: {fileID: 0}
    - target: {fileID: 4218508266327450, guid: eb861781884145a4ab1a0ccf39ffddad, type: 2}
      propertyPath: m_LocalPosition.z
      value: 0.029296875
      objectReference: {fileID: 0}
    - target: {fileID: 4218508266327450, guid: eb861781884145a4ab1a0ccf39ffddad, type: 2}
      propertyPath: m_LocalRotation.x
      value: 0.3007059
      objectReference: {fileID: 0}
    - target: {fileID: 4218508266327450, guid: eb861781884145a4ab1a0ccf39ffddad, type: 2}
      propertyPath: m_LocalRotation.y
      value: -0.953717
      objectReference: {fileID: 0}
    - target: {fileID: 4218508266327450, guid: eb861781884145a4ab1a0ccf39ffddad, type: 2}
      propertyPath: m_LocalRotation.z
      value: 0
      objectReference: {fileID: 0}
    - target: {fileID: 4218508266327450, guid: eb861781884145a4ab1a0ccf39ffddad, type: 2}
      propertyPath: m_LocalRotation.w
      value: 0
      objectReference: {fileID: 0}
    - target: {fileID: 4218508266327450, guid: eb861781884145a4ab1a0ccf39ffddad, type: 2}
      propertyPath: m_RootOrder
      value: 13
      objectReference: {fileID: 0}
    - target: {fileID: 4218508266327450, guid: eb861781884145a4ab1a0ccf39ffddad, type: 2}
      propertyPath: m_LocalScale.x
      value: 0.9
      objectReference: {fileID: 0}
    - target: {fileID: 4218508266327450, guid: eb861781884145a4ab1a0ccf39ffddad, type: 2}
      propertyPath: m_LocalEulerAnglesHint.z
      value: 325
      objectReference: {fileID: 0}
    - target: {fileID: 1991781392647004, guid: eb861781884145a4ab1a0ccf39ffddad, type: 2}
      propertyPath: m_Name
      value: slippery (3)
      objectReference: {fileID: 0}
    - target: {fileID: 4218508266327450, guid: eb861781884145a4ab1a0ccf39ffddad, type: 2}
      propertyPath: m_LocalEulerAnglesHint.y
      value: 180
      objectReference: {fileID: 0}
    m_RemovedComponents: []
  m_ParentPrefab: {fileID: 100100000, guid: eb861781884145a4ab1a0ccf39ffddad, type: 2}
  m_IsPrefabParent: 0
--- !u!1001 &680168511
Prefab:
  m_ObjectHideFlags: 0
  serializedVersion: 2
  m_Modification:
    m_TransformParent: {fileID: 0}
    m_Modifications:
    - target: {fileID: 4370715268705598, guid: 5ae51cb0d331daa488cde97725777d77, type: 2}
      propertyPath: m_LocalPosition.x
      value: -2.123074
      objectReference: {fileID: 0}
    - target: {fileID: 4370715268705598, guid: 5ae51cb0d331daa488cde97725777d77, type: 2}
      propertyPath: m_LocalPosition.y
      value: 10.729
      objectReference: {fileID: 0}
    - target: {fileID: 4370715268705598, guid: 5ae51cb0d331daa488cde97725777d77, type: 2}
      propertyPath: m_LocalPosition.z
      value: 0
      objectReference: {fileID: 0}
    - target: {fileID: 4370715268705598, guid: 5ae51cb0d331daa488cde97725777d77, type: 2}
      propertyPath: m_LocalRotation.x
      value: 0
      objectReference: {fileID: 0}
    - target: {fileID: 4370715268705598, guid: 5ae51cb0d331daa488cde97725777d77, type: 2}
      propertyPath: m_LocalRotation.y
      value: 0
      objectReference: {fileID: 0}
    - target: {fileID: 4370715268705598, guid: 5ae51cb0d331daa488cde97725777d77, type: 2}
      propertyPath: m_LocalRotation.z
      value: 0
      objectReference: {fileID: 0}
    - target: {fileID: 4370715268705598, guid: 5ae51cb0d331daa488cde97725777d77, type: 2}
      propertyPath: m_LocalRotation.w
      value: 1
      objectReference: {fileID: 0}
    - target: {fileID: 4370715268705598, guid: 5ae51cb0d331daa488cde97725777d77, type: 2}
      propertyPath: m_RootOrder
      value: 1
      objectReference: {fileID: 0}
    - target: {fileID: 114618517494641642, guid: 5ae51cb0d331daa488cde97725777d77,
        type: 2}
      propertyPath: LoadOnCollision
      value: 1
      objectReference: {fileID: 0}
    - target: {fileID: 114618517494641642, guid: 5ae51cb0d331daa488cde97725777d77,
        type: 2}
      propertyPath: LevelName
      value: level2
      objectReference: {fileID: 0}
    m_RemovedComponents: []
  m_ParentPrefab: {fileID: 100100000, guid: 5ae51cb0d331daa488cde97725777d77, type: 2}
  m_IsPrefabParent: 0
--- !u!1001 &769005439
Prefab:
  m_ObjectHideFlags: 0
  serializedVersion: 2
  m_Modification:
    m_TransformParent: {fileID: 0}
    m_Modifications:
    - target: {fileID: 4513404051189890, guid: ffa66ec550fdc8e43a58d3ff415c507c, type: 2}
      propertyPath: m_LocalPosition.x
      value: -1
      objectReference: {fileID: 0}
    - target: {fileID: 4513404051189890, guid: ffa66ec550fdc8e43a58d3ff415c507c, type: 2}
      propertyPath: m_LocalPosition.y
      value: 10.2
      objectReference: {fileID: 0}
    - target: {fileID: 4513404051189890, guid: ffa66ec550fdc8e43a58d3ff415c507c, type: 2}
      propertyPath: m_LocalPosition.z
      value: 0
      objectReference: {fileID: 0}
    - target: {fileID: 4513404051189890, guid: ffa66ec550fdc8e43a58d3ff415c507c, type: 2}
      propertyPath: m_LocalRotation.x
      value: 0
      objectReference: {fileID: 0}
    - target: {fileID: 4513404051189890, guid: ffa66ec550fdc8e43a58d3ff415c507c, type: 2}
      propertyPath: m_LocalRotation.y
      value: 0
      objectReference: {fileID: 0}
    - target: {fileID: 4513404051189890, guid: ffa66ec550fdc8e43a58d3ff415c507c, type: 2}
      propertyPath: m_LocalRotation.z
      value: 0
      objectReference: {fileID: 0}
    - target: {fileID: 4513404051189890, guid: ffa66ec550fdc8e43a58d3ff415c507c, type: 2}
      propertyPath: m_LocalRotation.w
      value: 1
      objectReference: {fileID: 0}
    - target: {fileID: 4513404051189890, guid: ffa66ec550fdc8e43a58d3ff415c507c, type: 2}
      propertyPath: m_RootOrder
      value: 23
      objectReference: {fileID: 0}
    - target: {fileID: 1037391050915306, guid: ffa66ec550fdc8e43a58d3ff415c507c, type: 2}
      propertyPath: m_Name
      value: floor (8)
      objectReference: {fileID: 0}
    - target: {fileID: 4513404051189890, guid: ffa66ec550fdc8e43a58d3ff415c507c, type: 2}
      propertyPath: m_LocalScale.x
      value: 3
      objectReference: {fileID: 0}
    m_RemovedComponents: []
  m_ParentPrefab: {fileID: 100100000, guid: ffa66ec550fdc8e43a58d3ff415c507c, type: 2}
  m_IsPrefabParent: 0
--- !u!1001 &784517326
Prefab:
  m_ObjectHideFlags: 0
  serializedVersion: 2
  m_Modification:
    m_TransformParent: {fileID: 0}
    m_Modifications:
    - target: {fileID: 4218508266327450, guid: eb861781884145a4ab1a0ccf39ffddad, type: 2}
      propertyPath: m_LocalPosition.x
      value: -0.45
      objectReference: {fileID: 0}
    - target: {fileID: 4218508266327450, guid: eb861781884145a4ab1a0ccf39ffddad, type: 2}
      propertyPath: m_LocalPosition.y
      value: 0.07
      objectReference: {fileID: 0}
    - target: {fileID: 4218508266327450, guid: eb861781884145a4ab1a0ccf39ffddad, type: 2}
      propertyPath: m_LocalPosition.z
      value: 0.029296875
      objectReference: {fileID: 0}
    - target: {fileID: 4218508266327450, guid: eb861781884145a4ab1a0ccf39ffddad, type: 2}
      propertyPath: m_LocalRotation.x
      value: 0
      objectReference: {fileID: 0}
    - target: {fileID: 4218508266327450, guid: eb861781884145a4ab1a0ccf39ffddad, type: 2}
      propertyPath: m_LocalRotation.y
      value: -0
      objectReference: {fileID: 0}
    - target: {fileID: 4218508266327450, guid: eb861781884145a4ab1a0ccf39ffddad, type: 2}
      propertyPath: m_LocalRotation.z
      value: 0.3007059
      objectReference: {fileID: 0}
    - target: {fileID: 4218508266327450, guid: eb861781884145a4ab1a0ccf39ffddad, type: 2}
      propertyPath: m_LocalRotation.w
      value: -0.953717
      objectReference: {fileID: 0}
    - target: {fileID: 4218508266327450, guid: eb861781884145a4ab1a0ccf39ffddad, type: 2}
      propertyPath: m_RootOrder
      value: 12
      objectReference: {fileID: 0}
    - target: {fileID: 4218508266327450, guid: eb861781884145a4ab1a0ccf39ffddad, type: 2}
      propertyPath: m_LocalScale.x
      value: 0.9
      objectReference: {fileID: 0}
    - target: {fileID: 4218508266327450, guid: eb861781884145a4ab1a0ccf39ffddad, type: 2}
      propertyPath: m_LocalEulerAnglesHint.z
      value: 325
      objectReference: {fileID: 0}
    - target: {fileID: 1991781392647004, guid: eb861781884145a4ab1a0ccf39ffddad, type: 2}
      propertyPath: m_Name
      value: slippery (2)
      objectReference: {fileID: 0}
    m_RemovedComponents: []
  m_ParentPrefab: {fileID: 100100000, guid: eb861781884145a4ab1a0ccf39ffddad, type: 2}
  m_IsPrefabParent: 0
--- !u!1001 &891007870
Prefab:
  m_ObjectHideFlags: 0
  serializedVersion: 2
  m_Modification:
    m_TransformParent: {fileID: 0}
    m_Modifications:
    - target: {fileID: 4218508266327450, guid: eb861781884145a4ab1a0ccf39ffddad, type: 2}
      propertyPath: m_LocalPosition.x
      value: 0.596
      objectReference: {fileID: 0}
    - target: {fileID: 4218508266327450, guid: eb861781884145a4ab1a0ccf39ffddad, type: 2}
      propertyPath: m_LocalPosition.y
      value: -1.927
      objectReference: {fileID: 0}
    - target: {fileID: 4218508266327450, guid: eb861781884145a4ab1a0ccf39ffddad, type: 2}
      propertyPath: m_LocalPosition.z
      value: 0.029296875
      objectReference: {fileID: 0}
    - target: {fileID: 4218508266327450, guid: eb861781884145a4ab1a0ccf39ffddad, type: 2}
      propertyPath: m_LocalRotation.x
      value: 0
      objectReference: {fileID: 0}
    - target: {fileID: 4218508266327450, guid: eb861781884145a4ab1a0ccf39ffddad, type: 2}
      propertyPath: m_LocalRotation.y
      value: -0
      objectReference: {fileID: 0}
    - target: {fileID: 4218508266327450, guid: eb861781884145a4ab1a0ccf39ffddad, type: 2}
      propertyPath: m_LocalRotation.z
      value: 0.3007059
      objectReference: {fileID: 0}
    - target: {fileID: 4218508266327450, guid: eb861781884145a4ab1a0ccf39ffddad, type: 2}
      propertyPath: m_LocalRotation.w
      value: -0.953717
      objectReference: {fileID: 0}
    - target: {fileID: 4218508266327450, guid: eb861781884145a4ab1a0ccf39ffddad, type: 2}
      propertyPath: m_RootOrder
      value: 9
      objectReference: {fileID: 0}
    - target: {fileID: 4218508266327450, guid: eb861781884145a4ab1a0ccf39ffddad, type: 2}
      propertyPath: m_LocalScale.x
      value: 1.2
      objectReference: {fileID: 0}
    - target: {fileID: 4218508266327450, guid: eb861781884145a4ab1a0ccf39ffddad, type: 2}
      propertyPath: m_LocalEulerAnglesHint.z
      value: 325
      objectReference: {fileID: 0}
    - target: {fileID: 1991781392647004, guid: eb861781884145a4ab1a0ccf39ffddad, type: 2}
      propertyPath: m_Name
      value: slippery (1)
      objectReference: {fileID: 0}
    m_RemovedComponents: []
  m_ParentPrefab: {fileID: 100100000, guid: eb861781884145a4ab1a0ccf39ffddad, type: 2}
  m_IsPrefabParent: 0
--- !u!1001 &907093338
Prefab:
  m_ObjectHideFlags: 0
  serializedVersion: 2
  m_Modification:
    m_TransformParent: {fileID: 0}
    m_Modifications:
    - target: {fileID: 4637328107831482, guid: 8d53a262cf39ba04bb69f9423ee4813e, type: 2}
      propertyPath: m_LocalPosition.x
      value: 0.39
      objectReference: {fileID: 0}
    - target: {fileID: 4637328107831482, guid: 8d53a262cf39ba04bb69f9423ee4813e, type: 2}
      propertyPath: m_LocalPosition.y
      value: 12.84
      objectReference: {fileID: 0}
    - target: {fileID: 4637328107831482, guid: 8d53a262cf39ba04bb69f9423ee4813e, type: 2}
      propertyPath: m_LocalPosition.z
      value: 0
      objectReference: {fileID: 0}
    - target: {fileID: 4637328107831482, guid: 8d53a262cf39ba04bb69f9423ee4813e, type: 2}
      propertyPath: m_LocalRotation.x
      value: 0
      objectReference: {fileID: 0}
    - target: {fileID: 4637328107831482, guid: 8d53a262cf39ba04bb69f9423ee4813e, type: 2}
      propertyPath: m_LocalRotation.y
      value: 0
      objectReference: {fileID: 0}
    - target: {fileID: 4637328107831482, guid: 8d53a262cf39ba04bb69f9423ee4813e, type: 2}
      propertyPath: m_LocalRotation.z
      value: 0.7071068
      objectReference: {fileID: 0}
    - target: {fileID: 4637328107831482, guid: 8d53a262cf39ba04bb69f9423ee4813e, type: 2}
      propertyPath: m_LocalRotation.w
      value: 0.7071068
      objectReference: {fileID: 0}
    - target: {fileID: 4637328107831482, guid: 8d53a262cf39ba04bb69f9423ee4813e, type: 2}
      propertyPath: m_RootOrder
      value: 30
      objectReference: {fileID: 0}
    - target: {fileID: 4637328107831482, guid: 8d53a262cf39ba04bb69f9423ee4813e, type: 2}
      propertyPath: m_LocalScale.x
      value: 0.1
      objectReference: {fileID: 0}
    - target: {fileID: 4637328107831482, guid: 8d53a262cf39ba04bb69f9423ee4813e, type: 2}
      propertyPath: m_LocalScale.y
      value: 0.5
      objectReference: {fileID: 0}
    - target: {fileID: 1952469506270768, guid: 8d53a262cf39ba04bb69f9423ee4813e, type: 2}
      propertyPath: m_Name
      value: webbable (10)
      objectReference: {fileID: 0}
    - target: {fileID: 212536985337987760, guid: 8d53a262cf39ba04bb69f9423ee4813e,
        type: 2}
      propertyPath: m_SortingLayerID
      value: 64494287
      objectReference: {fileID: 0}
    - target: {fileID: 212536985337987760, guid: 8d53a262cf39ba04bb69f9423ee4813e,
        type: 2}
      propertyPath: m_SortingLayer
      value: 1
      objectReference: {fileID: 0}
    - target: {fileID: 4637328107831482, guid: 8d53a262cf39ba04bb69f9423ee4813e, type: 2}
      propertyPath: m_LocalEulerAnglesHint.z
      value: 90
      objectReference: {fileID: 0}
    - target: {fileID: 114282512835830560, guid: 8d53a262cf39ba04bb69f9423ee4813e,
        type: 2}
      propertyPath: IsSticky
      value: 1
      objectReference: {fileID: 0}
    m_RemovedComponents: []
  m_ParentPrefab: {fileID: 100100000, guid: 8d53a262cf39ba04bb69f9423ee4813e, type: 2}
  m_IsPrefabParent: 0
--- !u!1001 &958432695
Prefab:
  m_ObjectHideFlags: 0
  serializedVersion: 2
  m_Modification:
    m_TransformParent: {fileID: 0}
    m_Modifications:
    - target: {fileID: 4513404051189890, guid: ffa66ec550fdc8e43a58d3ff415c507c, type: 2}
      propertyPath: m_LocalPosition.x
      value: -1.5
      objectReference: {fileID: 0}
    - target: {fileID: 4513404051189890, guid: ffa66ec550fdc8e43a58d3ff415c507c, type: 2}
      propertyPath: m_LocalPosition.y
      value: 6.425
      objectReference: {fileID: 0}
    - target: {fileID: 4513404051189890, guid: ffa66ec550fdc8e43a58d3ff415c507c, type: 2}
      propertyPath: m_LocalPosition.z
      value: 0
      objectReference: {fileID: 0}
    - target: {fileID: 4513404051189890, guid: ffa66ec550fdc8e43a58d3ff415c507c, type: 2}
      propertyPath: m_LocalRotation.x
      value: 0
      objectReference: {fileID: 0}
    - target: {fileID: 4513404051189890, guid: ffa66ec550fdc8e43a58d3ff415c507c, type: 2}
      propertyPath: m_LocalRotation.y
      value: 0
      objectReference: {fileID: 0}
    - target: {fileID: 4513404051189890, guid: ffa66ec550fdc8e43a58d3ff415c507c, type: 2}
      propertyPath: m_LocalRotation.z
      value: 0
      objectReference: {fileID: 0}
    - target: {fileID: 4513404051189890, guid: ffa66ec550fdc8e43a58d3ff415c507c, type: 2}
      propertyPath: m_LocalRotation.w
      value: 1
      objectReference: {fileID: 0}
    - target: {fileID: 4513404051189890, guid: ffa66ec550fdc8e43a58d3ff415c507c, type: 2}
      propertyPath: m_RootOrder
      value: 21
      objectReference: {fileID: 0}
    - target: {fileID: 1037391050915306, guid: ffa66ec550fdc8e43a58d3ff415c507c, type: 2}
      propertyPath: m_Name
      value: floor (7)
      objectReference: {fileID: 0}
    - target: {fileID: 4513404051189890, guid: ffa66ec550fdc8e43a58d3ff415c507c, type: 2}
      propertyPath: m_LocalScale.x
      value: 2
      objectReference: {fileID: 0}
    m_RemovedComponents: []
  m_ParentPrefab: {fileID: 100100000, guid: ffa66ec550fdc8e43a58d3ff415c507c, type: 2}
  m_IsPrefabParent: 0
--- !u!1001 &1003324355
Prefab:
  m_ObjectHideFlags: 0
  serializedVersion: 2
  m_Modification:
    m_TransformParent: {fileID: 0}
    m_Modifications:
    - target: {fileID: 4637328107831482, guid: 8d53a262cf39ba04bb69f9423ee4813e, type: 2}
      propertyPath: m_LocalPosition.x
      value: -2.78
      objectReference: {fileID: 0}
    - target: {fileID: 4637328107831482, guid: 8d53a262cf39ba04bb69f9423ee4813e, type: 2}
      propertyPath: m_LocalPosition.y
      value: 6.877
      objectReference: {fileID: 0}
    - target: {fileID: 4637328107831482, guid: 8d53a262cf39ba04bb69f9423ee4813e, type: 2}
      propertyPath: m_LocalPosition.z
      value: 0
      objectReference: {fileID: 0}
    - target: {fileID: 4637328107831482, guid: 8d53a262cf39ba04bb69f9423ee4813e, type: 2}
      propertyPath: m_LocalRotation.x
      value: 0
      objectReference: {fileID: 0}
    - target: {fileID: 4637328107831482, guid: 8d53a262cf39ba04bb69f9423ee4813e, type: 2}
      propertyPath: m_LocalRotation.y
      value: 0
      objectReference: {fileID: 0}
    - target: {fileID: 4637328107831482, guid: 8d53a262cf39ba04bb69f9423ee4813e, type: 2}
      propertyPath: m_LocalRotation.z
      value: 0
      objectReference: {fileID: 0}
    - target: {fileID: 4637328107831482, guid: 8d53a262cf39ba04bb69f9423ee4813e, type: 2}
      propertyPath: m_LocalRotation.w
      value: 1
      objectReference: {fileID: 0}
    - target: {fileID: 4637328107831482, guid: 8d53a262cf39ba04bb69f9423ee4813e, type: 2}
      propertyPath: m_RootOrder
      value: 29
      objectReference: {fileID: 0}
    - target: {fileID: 4637328107831482, guid: 8d53a262cf39ba04bb69f9423ee4813e, type: 2}
      propertyPath: m_LocalScale.x
      value: 0.1
      objectReference: {fileID: 0}
    - target: {fileID: 4637328107831482, guid: 8d53a262cf39ba04bb69f9423ee4813e, type: 2}
      propertyPath: m_LocalScale.y
      value: 0.5
      objectReference: {fileID: 0}
    - target: {fileID: 1952469506270768, guid: 8d53a262cf39ba04bb69f9423ee4813e, type: 2}
      propertyPath: m_Name
      value: webbable (9)
      objectReference: {fileID: 0}
    - target: {fileID: 212536985337987760, guid: 8d53a262cf39ba04bb69f9423ee4813e,
        type: 2}
      propertyPath: m_SortingLayerID
      value: 64494287
      objectReference: {fileID: 0}
    - target: {fileID: 212536985337987760, guid: 8d53a262cf39ba04bb69f9423ee4813e,
        type: 2}
      propertyPath: m_SortingLayer
      value: 1
      objectReference: {fileID: 0}
    - target: {fileID: 114282512835830560, guid: 8d53a262cf39ba04bb69f9423ee4813e,
        type: 2}
      propertyPath: IsSticky
      value: 1
      objectReference: {fileID: 0}
    m_RemovedComponents: []
  m_ParentPrefab: {fileID: 100100000, guid: 8d53a262cf39ba04bb69f9423ee4813e, type: 2}
  m_IsPrefabParent: 0
--- !u!4 &1008852248 stripped
Transform:
  m_PrefabParentObject: {fileID: 4805832358999766, guid: 503f0be510345f949aae31fd31c41227,
    type: 2}
  m_PrefabInternal: {fileID: 1494704918}
--- !u!1001 &1048788934
Prefab:
  m_ObjectHideFlags: 0
  serializedVersion: 2
  m_Modification:
    m_TransformParent: {fileID: 0}
    m_Modifications:
    - target: {fileID: 4637328107831482, guid: 8d53a262cf39ba04bb69f9423ee4813e, type: 2}
      propertyPath: m_LocalPosition.x
      value: 2.31
      objectReference: {fileID: 0}
    - target: {fileID: 4637328107831482, guid: 8d53a262cf39ba04bb69f9423ee4813e, type: 2}
      propertyPath: m_LocalPosition.y
      value: 5.406
      objectReference: {fileID: 0}
    - target: {fileID: 4637328107831482, guid: 8d53a262cf39ba04bb69f9423ee4813e, type: 2}
      propertyPath: m_LocalPosition.z
      value: 0
      objectReference: {fileID: 0}
    - target: {fileID: 4637328107831482, guid: 8d53a262cf39ba04bb69f9423ee4813e, type: 2}
      propertyPath: m_LocalRotation.x
      value: 0
      objectReference: {fileID: 0}
    - target: {fileID: 4637328107831482, guid: 8d53a262cf39ba04bb69f9423ee4813e, type: 2}
      propertyPath: m_LocalRotation.y
      value: 0
      objectReference: {fileID: 0}
    - target: {fileID: 4637328107831482, guid: 8d53a262cf39ba04bb69f9423ee4813e, type: 2}
      propertyPath: m_LocalRotation.z
      value: 0
      objectReference: {fileID: 0}
    - target: {fileID: 4637328107831482, guid: 8d53a262cf39ba04bb69f9423ee4813e, type: 2}
      propertyPath: m_LocalRotation.w
      value: 1
      objectReference: {fileID: 0}
    - target: {fileID: 4637328107831482, guid: 8d53a262cf39ba04bb69f9423ee4813e, type: 2}
      propertyPath: m_RootOrder
      value: 27
      objectReference: {fileID: 0}
    - target: {fileID: 4637328107831482, guid: 8d53a262cf39ba04bb69f9423ee4813e, type: 2}
      propertyPath: m_LocalScale.x
      value: 0.1
      objectReference: {fileID: 0}
    - target: {fileID: 4637328107831482, guid: 8d53a262cf39ba04bb69f9423ee4813e, type: 2}
      propertyPath: m_LocalScale.y
      value: 0.5
      objectReference: {fileID: 0}
    - target: {fileID: 1952469506270768, guid: 8d53a262cf39ba04bb69f9423ee4813e, type: 2}
      propertyPath: m_Name
      value: webbable (7)
      objectReference: {fileID: 0}
    - target: {fileID: 212536985337987760, guid: 8d53a262cf39ba04bb69f9423ee4813e,
        type: 2}
      propertyPath: m_SortingLayerID
      value: 64494287
      objectReference: {fileID: 0}
    - target: {fileID: 212536985337987760, guid: 8d53a262cf39ba04bb69f9423ee4813e,
        type: 2}
      propertyPath: m_SortingLayer
      value: 1
      objectReference: {fileID: 0}
    - target: {fileID: 114282512835830560, guid: 8d53a262cf39ba04bb69f9423ee4813e,
        type: 2}
      propertyPath: IsSticky
      value: 1
      objectReference: {fileID: 0}
    m_RemovedComponents: []
  m_ParentPrefab: {fileID: 100100000, guid: 8d53a262cf39ba04bb69f9423ee4813e, type: 2}
  m_IsPrefabParent: 0
--- !u!1001 &1183468807
Prefab:
  m_ObjectHideFlags: 0
  serializedVersion: 2
  m_Modification:
    m_TransformParent: {fileID: 0}
    m_Modifications:
    - target: {fileID: 4218508266327450, guid: eb861781884145a4ab1a0ccf39ffddad, type: 2}
      propertyPath: m_LocalPosition.x
      value: 0
      objectReference: {fileID: 0}
    - target: {fileID: 4218508266327450, guid: eb861781884145a4ab1a0ccf39ffddad, type: 2}
      propertyPath: m_LocalPosition.y
      value: 8.5
      objectReference: {fileID: 0}
    - target: {fileID: 4218508266327450, guid: eb861781884145a4ab1a0ccf39ffddad, type: 2}
      propertyPath: m_LocalPosition.z
      value: 0.029296875
      objectReference: {fileID: 0}
    - target: {fileID: 4218508266327450, guid: eb861781884145a4ab1a0ccf39ffddad, type: 2}
      propertyPath: m_LocalRotation.x
      value: 0
      objectReference: {fileID: 0}
    - target: {fileID: 4218508266327450, guid: eb861781884145a4ab1a0ccf39ffddad, type: 2}
      propertyPath: m_LocalRotation.y
      value: -0
      objectReference: {fileID: 0}
    - target: {fileID: 4218508266327450, guid: eb861781884145a4ab1a0ccf39ffddad, type: 2}
      propertyPath: m_LocalRotation.z
      value: 0.3007059
      objectReference: {fileID: 0}
    - target: {fileID: 4218508266327450, guid: eb861781884145a4ab1a0ccf39ffddad, type: 2}
      propertyPath: m_LocalRotation.w
      value: -0.953717
      objectReference: {fileID: 0}
    - target: {fileID: 4218508266327450, guid: eb861781884145a4ab1a0ccf39ffddad, type: 2}
      propertyPath: m_RootOrder
      value: 25
      objectReference: {fileID: 0}
    - target: {fileID: 4218508266327450, guid: eb861781884145a4ab1a0ccf39ffddad, type: 2}
      propertyPath: m_LocalScale.x
      value: 1.4
      objectReference: {fileID: 0}
    - target: {fileID: 4218508266327450, guid: eb861781884145a4ab1a0ccf39ffddad, type: 2}
      propertyPath: m_LocalEulerAnglesHint.z
      value: 325
      objectReference: {fileID: 0}
    - target: {fileID: 1991781392647004, guid: eb861781884145a4ab1a0ccf39ffddad, type: 2}
      propertyPath: m_Name
      value: slippery (4)
      objectReference: {fileID: 0}
    m_RemovedComponents: []
  m_ParentPrefab: {fileID: 100100000, guid: eb861781884145a4ab1a0ccf39ffddad, type: 2}
  m_IsPrefabParent: 0
--- !u!1001 &1227501976
Prefab:
  m_ObjectHideFlags: 0
  serializedVersion: 2
  m_Modification:
    m_TransformParent: {fileID: 0}
    m_Modifications:
    - target: {fileID: 4637328107831482, guid: 8d53a262cf39ba04bb69f9423ee4813e, type: 2}
      propertyPath: m_LocalPosition.x
      value: 0.02
      objectReference: {fileID: 0}
    - target: {fileID: 4637328107831482, guid: 8d53a262cf39ba04bb69f9423ee4813e, type: 2}
      propertyPath: m_LocalPosition.y
      value: 5.8
      objectReference: {fileID: 0}
    - target: {fileID: 4637328107831482, guid: 8d53a262cf39ba04bb69f9423ee4813e, type: 2}
      propertyPath: m_LocalPosition.z
      value: 0
      objectReference: {fileID: 0}
    - target: {fileID: 4637328107831482, guid: 8d53a262cf39ba04bb69f9423ee4813e, type: 2}
      propertyPath: m_LocalRotation.x
      value: 0
      objectReference: {fileID: 0}
    - target: {fileID: 4637328107831482, guid: 8d53a262cf39ba04bb69f9423ee4813e, type: 2}
      propertyPath: m_LocalRotation.y
      value: 0
      objectReference: {fileID: 0}
    - target: {fileID: 4637328107831482, guid: 8d53a262cf39ba04bb69f9423ee4813e, type: 2}
      propertyPath: m_LocalRotation.z
      value: 0
      objectReference: {fileID: 0}
    - target: {fileID: 4637328107831482, guid: 8d53a262cf39ba04bb69f9423ee4813e, type: 2}
      propertyPath: m_LocalRotation.w
      value: 1
      objectReference: {fileID: 0}
    - target: {fileID: 4637328107831482, guid: 8d53a262cf39ba04bb69f9423ee4813e, type: 2}
      propertyPath: m_RootOrder
      value: 18
      objectReference: {fileID: 0}
    - target: {fileID: 4637328107831482, guid: 8d53a262cf39ba04bb69f9423ee4813e, type: 2}
      propertyPath: m_LocalScale.x
      value: 0.1
      objectReference: {fileID: 0}
    - target: {fileID: 4637328107831482, guid: 8d53a262cf39ba04bb69f9423ee4813e, type: 2}
      propertyPath: m_LocalScale.y
      value: 0.5
      objectReference: {fileID: 0}
    - target: {fileID: 1952469506270768, guid: 8d53a262cf39ba04bb69f9423ee4813e, type: 2}
      propertyPath: m_Name
      value: webbable (2)
      objectReference: {fileID: 0}
    - target: {fileID: 212536985337987760, guid: 8d53a262cf39ba04bb69f9423ee4813e,
        type: 2}
      propertyPath: m_SortingLayerID
      value: 64494287
      objectReference: {fileID: 0}
    - target: {fileID: 212536985337987760, guid: 8d53a262cf39ba04bb69f9423ee4813e,
        type: 2}
      propertyPath: m_SortingLayer
      value: 1
      objectReference: {fileID: 0}
    - target: {fileID: 114282512835830560, guid: 8d53a262cf39ba04bb69f9423ee4813e,
        type: 2}
      propertyPath: IsSticky
      value: 1
      objectReference: {fileID: 0}
    m_RemovedComponents: []
  m_ParentPrefab: {fileID: 100100000, guid: 8d53a262cf39ba04bb69f9423ee4813e, type: 2}
  m_IsPrefabParent: 0
--- !u!1001 &1313991090
Prefab:
  m_ObjectHideFlags: 0
  serializedVersion: 2
  m_Modification:
    m_TransformParent: {fileID: 0}
    m_Modifications:
    - target: {fileID: 4513404051189890, guid: ffa66ec550fdc8e43a58d3ff415c507c, type: 2}
      propertyPath: m_LocalPosition.x
      value: -2.5
      objectReference: {fileID: 0}
    - target: {fileID: 4513404051189890, guid: ffa66ec550fdc8e43a58d3ff415c507c, type: 2}
      propertyPath: m_LocalPosition.y
      value: -3
      objectReference: {fileID: 0}
    - target: {fileID: 4513404051189890, guid: ffa66ec550fdc8e43a58d3ff415c507c, type: 2}
      propertyPath: m_LocalPosition.z
      value: 0
      objectReference: {fileID: 0}
    - target: {fileID: 4513404051189890, guid: ffa66ec550fdc8e43a58d3ff415c507c, type: 2}
      propertyPath: m_LocalRotation.x
      value: 0
      objectReference: {fileID: 0}
    - target: {fileID: 4513404051189890, guid: ffa66ec550fdc8e43a58d3ff415c507c, type: 2}
      propertyPath: m_LocalRotation.y
      value: 0
      objectReference: {fileID: 0}
    - target: {fileID: 4513404051189890, guid: ffa66ec550fdc8e43a58d3ff415c507c, type: 2}
      propertyPath: m_LocalRotation.z
      value: 0
      objectReference: {fileID: 0}
    - target: {fileID: 4513404051189890, guid: ffa66ec550fdc8e43a58d3ff415c507c, type: 2}
      propertyPath: m_LocalRotation.w
      value: 1
      objectReference: {fileID: 0}
    - target: {fileID: 4513404051189890, guid: ffa66ec550fdc8e43a58d3ff415c507c, type: 2}
      propertyPath: m_RootOrder
      value: 5
      objectReference: {fileID: 0}
    m_RemovedComponents: []
  m_ParentPrefab: {fileID: 100100000, guid: ffa66ec550fdc8e43a58d3ff415c507c, type: 2}
  m_IsPrefabParent: 0
--- !u!1001 &1385477578
Prefab:
  m_ObjectHideFlags: 0
  serializedVersion: 2
  m_Modification:
    m_TransformParent: {fileID: 0}
    m_Modifications:
    - target: {fileID: 4637328107831482, guid: 8d53a262cf39ba04bb69f9423ee4813e, type: 2}
      propertyPath: m_LocalPosition.x
      value: 2.31
      objectReference: {fileID: 0}
    - target: {fileID: 4637328107831482, guid: 8d53a262cf39ba04bb69f9423ee4813e, type: 2}
      propertyPath: m_LocalPosition.y
      value: 7
      objectReference: {fileID: 0}
    - target: {fileID: 4637328107831482, guid: 8d53a262cf39ba04bb69f9423ee4813e, type: 2}
      propertyPath: m_LocalPosition.z
      value: 0
      objectReference: {fileID: 0}
    - target: {fileID: 4637328107831482, guid: 8d53a262cf39ba04bb69f9423ee4813e, type: 2}
      propertyPath: m_LocalRotation.x
      value: 0
      objectReference: {fileID: 0}
    - target: {fileID: 4637328107831482, guid: 8d53a262cf39ba04bb69f9423ee4813e, type: 2}
      propertyPath: m_LocalRotation.y
      value: 0
      objectReference: {fileID: 0}
    - target: {fileID: 4637328107831482, guid: 8d53a262cf39ba04bb69f9423ee4813e, type: 2}
      propertyPath: m_LocalRotation.z
      value: 0
      objectReference: {fileID: 0}
    - target: {fileID: 4637328107831482, guid: 8d53a262cf39ba04bb69f9423ee4813e, type: 2}
      propertyPath: m_LocalRotation.w
      value: 1
      objectReference: {fileID: 0}
    - target: {fileID: 4637328107831482, guid: 8d53a262cf39ba04bb69f9423ee4813e, type: 2}
      propertyPath: m_RootOrder
      value: 19
      objectReference: {fileID: 0}
    - target: {fileID: 4637328107831482, guid: 8d53a262cf39ba04bb69f9423ee4813e, type: 2}
      propertyPath: m_LocalScale.x
      value: 0.1
      objectReference: {fileID: 0}
    - target: {fileID: 4637328107831482, guid: 8d53a262cf39ba04bb69f9423ee4813e, type: 2}
      propertyPath: m_LocalScale.y
      value: 0.5
      objectReference: {fileID: 0}
    - target: {fileID: 1952469506270768, guid: 8d53a262cf39ba04bb69f9423ee4813e, type: 2}
      propertyPath: m_Name
      value: webbable (3)
      objectReference: {fileID: 0}
    - target: {fileID: 212536985337987760, guid: 8d53a262cf39ba04bb69f9423ee4813e,
        type: 2}
      propertyPath: m_SortingLayerID
      value: 64494287
      objectReference: {fileID: 0}
    - target: {fileID: 212536985337987760, guid: 8d53a262cf39ba04bb69f9423ee4813e,
        type: 2}
      propertyPath: m_SortingLayer
      value: 1
      objectReference: {fileID: 0}
    - target: {fileID: 114282512835830560, guid: 8d53a262cf39ba04bb69f9423ee4813e,
        type: 2}
      propertyPath: IsSticky
      value: 1
      objectReference: {fileID: 0}
    m_RemovedComponents: []
  m_ParentPrefab: {fileID: 100100000, guid: 8d53a262cf39ba04bb69f9423ee4813e, type: 2}
  m_IsPrefabParent: 0
--- !u!1001 &1494704918
Prefab:
  m_ObjectHideFlags: 0
  serializedVersion: 2
  m_Modification:
    m_TransformParent: {fileID: 0}
    m_Modifications:
    - target: {fileID: 4805832358999766, guid: 503f0be510345f949aae31fd31c41227, type: 2}
      propertyPath: m_LocalPosition.x
      value: -2
      objectReference: {fileID: 0}
    - target: {fileID: 4805832358999766, guid: 503f0be510345f949aae31fd31c41227, type: 2}
      propertyPath: m_LocalPosition.y
      value: -2
      objectReference: {fileID: 0}
    - target: {fileID: 4805832358999766, guid: 503f0be510345f949aae31fd31c41227, type: 2}
      propertyPath: m_LocalPosition.z
      value: 0
      objectReference: {fileID: 0}
    - target: {fileID: 4805832358999766, guid: 503f0be510345f949aae31fd31c41227, type: 2}
      propertyPath: m_LocalRotation.x
      value: 0
      objectReference: {fileID: 0}
    - target: {fileID: 4805832358999766, guid: 503f0be510345f949aae31fd31c41227, type: 2}
      propertyPath: m_LocalRotation.y
      value: 0
      objectReference: {fileID: 0}
    - target: {fileID: 4805832358999766, guid: 503f0be510345f949aae31fd31c41227, type: 2}
      propertyPath: m_LocalRotation.z
      value: 0
      objectReference: {fileID: 0}
    - target: {fileID: 4805832358999766, guid: 503f0be510345f949aae31fd31c41227, type: 2}
      propertyPath: m_LocalRotation.w
      value: 1
      objectReference: {fileID: 0}
    - target: {fileID: 4805832358999766, guid: 503f0be510345f949aae31fd31c41227, type: 2}
      propertyPath: m_RootOrder
      value: 3
      objectReference: {fileID: 0}
    - target: {fileID: 114915608786608136, guid: 503f0be510345f949aae31fd31c41227,
        type: 2}
      propertyPath: MoveSpeed
      value: 5
      objectReference: {fileID: 0}
    - target: {fileID: 114915608786608136, guid: 503f0be510345f949aae31fd31c41227,
        type: 2}
      propertyPath: JumpForce
      value: 2000
      objectReference: {fileID: 0}
    - target: {fileID: 114915608786608136, guid: 503f0be510345f949aae31fd31c41227,
        type: 2}
      propertyPath: DownForce
      value: 2000
      objectReference: {fileID: 0}
    m_RemovedComponents: []
  m_ParentPrefab: {fileID: 100100000, guid: 503f0be510345f949aae31fd31c41227, type: 2}
  m_IsPrefabParent: 0
--- !u!114 &1550205808 stripped
MonoBehaviour:
  m_PrefabParentObject: {fileID: 114974082464622064, guid: 0fc766440d5036a449ab189efd67a58e,
    type: 2}
  m_PrefabInternal: {fileID: 229087659}
  m_Script: {fileID: 11500000, guid: 5fe16c60af4d14a41b5af5650bc3f7dc, type: 3}
--- !u!1001 &1720204385
Prefab:
  m_ObjectHideFlags: 0
  serializedVersion: 2
  m_Modification:
    m_TransformParent: {fileID: 0}
    m_Modifications:
    - target: {fileID: 4637328107831482, guid: 8d53a262cf39ba04bb69f9423ee4813e, type: 2}
      propertyPath: m_LocalPosition.x
      value: 0.02
      objectReference: {fileID: 0}
    - target: {fileID: 4637328107831482, guid: 8d53a262cf39ba04bb69f9423ee4813e, type: 2}
      propertyPath: m_LocalPosition.y
      value: 4.404
      objectReference: {fileID: 0}
    - target: {fileID: 4637328107831482, guid: 8d53a262cf39ba04bb69f9423ee4813e, type: 2}
      propertyPath: m_LocalPosition.z
      value: 0
      objectReference: {fileID: 0}
    - target: {fileID: 4637328107831482, guid: 8d53a262cf39ba04bb69f9423ee4813e, type: 2}
      propertyPath: m_LocalRotation.x
      value: 0
      objectReference: {fileID: 0}
    - target: {fileID: 4637328107831482, guid: 8d53a262cf39ba04bb69f9423ee4813e, type: 2}
      propertyPath: m_LocalRotation.y
      value: 0
      objectReference: {fileID: 0}
    - target: {fileID: 4637328107831482, guid: 8d53a262cf39ba04bb69f9423ee4813e, type: 2}
      propertyPath: m_LocalRotation.z
      value: 0
      objectReference: {fileID: 0}
    - target: {fileID: 4637328107831482, guid: 8d53a262cf39ba04bb69f9423ee4813e, type: 2}
      propertyPath: m_LocalRotation.w
      value: 1
      objectReference: {fileID: 0}
    - target: {fileID: 4637328107831482, guid: 8d53a262cf39ba04bb69f9423ee4813e, type: 2}
      propertyPath: m_RootOrder
      value: 28
      objectReference: {fileID: 0}
    - target: {fileID: 4637328107831482, guid: 8d53a262cf39ba04bb69f9423ee4813e, type: 2}
      propertyPath: m_LocalScale.x
      value: 0.1
      objectReference: {fileID: 0}
    - target: {fileID: 4637328107831482, guid: 8d53a262cf39ba04bb69f9423ee4813e, type: 2}
      propertyPath: m_LocalScale.y
      value: 0.5
      objectReference: {fileID: 0}
    - target: {fileID: 1952469506270768, guid: 8d53a262cf39ba04bb69f9423ee4813e, type: 2}
      propertyPath: m_Name
      value: webbable (8)
      objectReference: {fileID: 0}
    - target: {fileID: 212536985337987760, guid: 8d53a262cf39ba04bb69f9423ee4813e,
        type: 2}
      propertyPath: m_SortingLayerID
      value: 64494287
      objectReference: {fileID: 0}
    - target: {fileID: 212536985337987760, guid: 8d53a262cf39ba04bb69f9423ee4813e,
        type: 2}
      propertyPath: m_SortingLayer
      value: 1
      objectReference: {fileID: 0}
    - target: {fileID: 114282512835830560, guid: 8d53a262cf39ba04bb69f9423ee4813e,
        type: 2}
      propertyPath: IsSticky
      value: 1
      objectReference: {fileID: 0}
    m_RemovedComponents: []
  m_ParentPrefab: {fileID: 100100000, guid: 8d53a262cf39ba04bb69f9423ee4813e, type: 2}
  m_IsPrefabParent: 0
--- !u!1001 &1727157117
Prefab:
  m_ObjectHideFlags: 0
  serializedVersion: 2
  m_Modification:
    m_TransformParent: {fileID: 0}
    m_Modifications:
    - target: {fileID: 4513404051189890, guid: ffa66ec550fdc8e43a58d3ff415c507c, type: 2}
      propertyPath: m_LocalPosition.x
      value: -0
      objectReference: {fileID: 0}
    - target: {fileID: 4513404051189890, guid: ffa66ec550fdc8e43a58d3ff415c507c, type: 2}
      propertyPath: m_LocalPosition.y
      value: 4.25
      objectReference: {fileID: 0}
    - target: {fileID: 4513404051189890, guid: ffa66ec550fdc8e43a58d3ff415c507c, type: 2}
      propertyPath: m_LocalPosition.z
      value: 0
      objectReference: {fileID: 0}
    - target: {fileID: 4513404051189890, guid: ffa66ec550fdc8e43a58d3ff415c507c, type: 2}
      propertyPath: m_LocalRotation.x
      value: 0
      objectReference: {fileID: 0}
    - target: {fileID: 4513404051189890, guid: ffa66ec550fdc8e43a58d3ff415c507c, type: 2}
      propertyPath: m_LocalRotation.y
      value: 0
      objectReference: {fileID: 0}
    - target: {fileID: 4513404051189890, guid: ffa66ec550fdc8e43a58d3ff415c507c, type: 2}
      propertyPath: m_LocalRotation.z
      value: 0.7071068
      objectReference: {fileID: 0}
    - target: {fileID: 4513404051189890, guid: ffa66ec550fdc8e43a58d3ff415c507c, type: 2}
      propertyPath: m_LocalRotation.w
      value: 0.7071068
      objectReference: {fileID: 0}
    - target: {fileID: 4513404051189890, guid: ffa66ec550fdc8e43a58d3ff415c507c, type: 2}
      propertyPath: m_RootOrder
      value: 15
      objectReference: {fileID: 0}
    - target: {fileID: 1037391050915306, guid: ffa66ec550fdc8e43a58d3ff415c507c, type: 2}
      propertyPath: m_Name
      value: floor (5)
      objectReference: {fileID: 0}
    - target: {fileID: 4513404051189890, guid: ffa66ec550fdc8e43a58d3ff415c507c, type: 2}
      propertyPath: m_LocalEulerAnglesHint.z
      value: 90
      objectReference: {fileID: 0}
    - target: {fileID: 4513404051189890, guid: ffa66ec550fdc8e43a58d3ff415c507c, type: 2}
      propertyPath: m_LocalScale.x
      value: 3
      objectReference: {fileID: 0}
    m_RemovedComponents: []
  m_ParentPrefab: {fileID: 100100000, guid: ffa66ec550fdc8e43a58d3ff415c507c, type: 2}
  m_IsPrefabParent: 0
--- !u!1001 &1737101017
Prefab:
  m_ObjectHideFlags: 0
  serializedVersion: 2
  m_Modification:
    m_TransformParent: {fileID: 0}
    m_Modifications:
    - target: {fileID: 4528128016001978, guid: 66eb8bab23f910949ac577629dd1154b, type: 2}
      propertyPath: m_LocalPosition.x
      value: 0
      objectReference: {fileID: 0}
    - target: {fileID: 4528128016001978, guid: 66eb8bab23f910949ac577629dd1154b, type: 2}
      propertyPath: m_LocalPosition.y
      value: 4
      objectReference: {fileID: 0}
    - target: {fileID: 4528128016001978, guid: 66eb8bab23f910949ac577629dd1154b, type: 2}
      propertyPath: m_LocalPosition.z
      value: 0
      objectReference: {fileID: 0}
    - target: {fileID: 4528128016001978, guid: 66eb8bab23f910949ac577629dd1154b, type: 2}
      propertyPath: m_LocalRotation.x
      value: 0
      objectReference: {fileID: 0}
    - target: {fileID: 4528128016001978, guid: 66eb8bab23f910949ac577629dd1154b, type: 2}
      propertyPath: m_LocalRotation.y
      value: 0
      objectReference: {fileID: 0}
    - target: {fileID: 4528128016001978, guid: 66eb8bab23f910949ac577629dd1154b, type: 2}
      propertyPath: m_LocalRotation.z
      value: 0
      objectReference: {fileID: 0}
    - target: {fileID: 4528128016001978, guid: 66eb8bab23f910949ac577629dd1154b, type: 2}
      propertyPath: m_LocalRotation.w
      value: 1
      objectReference: {fileID: 0}
    - target: {fileID: 4528128016001978, guid: 66eb8bab23f910949ac577629dd1154b, type: 2}
      propertyPath: m_RootOrder
      value: 7
      objectReference: {fileID: 0}
    - target: {fileID: 61670917309435446, guid: 66eb8bab23f910949ac577629dd1154b,
        type: 2}
      propertyPath: m_Offset.x
      value: 3
      objectReference: {fileID: 0}
    - target: {fileID: 61035583255263702, guid: 66eb8bab23f910949ac577629dd1154b,
        type: 2}
      propertyPath: m_Offset.x
      value: -3
      objectReference: {fileID: 0}
    m_RemovedComponents: []
  m_ParentPrefab: {fileID: 100100000, guid: 66eb8bab23f910949ac577629dd1154b, type: 2}
  m_IsPrefabParent: 0
--- !u!1001 &1753146937
Prefab:
  m_ObjectHideFlags: 0
  serializedVersion: 2
  m_Modification:
    m_TransformParent: {fileID: 0}
    m_Modifications:
    - target: {fileID: 4513404051189890, guid: ffa66ec550fdc8e43a58d3ff415c507c, type: 2}
      propertyPath: m_LocalPosition.x
      value: 1.687
      objectReference: {fileID: 0}
    - target: {fileID: 4513404051189890, guid: ffa66ec550fdc8e43a58d3ff415c507c, type: 2}
      propertyPath: m_LocalPosition.y
      value: -4.433
      objectReference: {fileID: 0}
    - target: {fileID: 4513404051189890, guid: ffa66ec550fdc8e43a58d3ff415c507c, type: 2}
      propertyPath: m_LocalPosition.z
      value: 0
      objectReference: {fileID: 0}
    - target: {fileID: 4513404051189890, guid: ffa66ec550fdc8e43a58d3ff415c507c, type: 2}
      propertyPath: m_LocalRotation.x
      value: 0
      objectReference: {fileID: 0}
    - target: {fileID: 4513404051189890, guid: ffa66ec550fdc8e43a58d3ff415c507c, type: 2}
      propertyPath: m_LocalRotation.y
      value: 0
      objectReference: {fileID: 0}
    - target: {fileID: 4513404051189890, guid: ffa66ec550fdc8e43a58d3ff415c507c, type: 2}
      propertyPath: m_LocalRotation.z
      value: 0
      objectReference: {fileID: 0}
    - target: {fileID: 4513404051189890, guid: ffa66ec550fdc8e43a58d3ff415c507c, type: 2}
      propertyPath: m_LocalRotation.w
      value: 1
      objectReference: {fileID: 0}
    - target: {fileID: 4513404051189890, guid: ffa66ec550fdc8e43a58d3ff415c507c, type: 2}
      propertyPath: m_RootOrder
      value: 6
      objectReference: {fileID: 0}
    - target: {fileID: 1037391050915306, guid: ffa66ec550fdc8e43a58d3ff415c507c, type: 2}
      propertyPath: m_Name
      value: floor (1)
      objectReference: {fileID: 0}
    - target: {fileID: 4513404051189890, guid: ffa66ec550fdc8e43a58d3ff415c507c, type: 2}
      propertyPath: m_LocalScale.x
      value: 2
      objectReference: {fileID: 0}
    m_RemovedComponents: []
  m_ParentPrefab: {fileID: 100100000, guid: ffa66ec550fdc8e43a58d3ff415c507c, type: 2}
  m_IsPrefabParent: 0
--- !u!1001 &1867004057
Prefab:
  m_ObjectHideFlags: 0
  serializedVersion: 2
  m_Modification:
    m_TransformParent: {fileID: 0}
    m_Modifications:
    - target: {fileID: 4637328107831482, guid: 8d53a262cf39ba04bb69f9423ee4813e, type: 2}
      propertyPath: m_LocalPosition.x
      value: 0.02
      objectReference: {fileID: 0}
    - target: {fileID: 4637328107831482, guid: 8d53a262cf39ba04bb69f9423ee4813e, type: 2}
      propertyPath: m_LocalPosition.y
      value: 2.8
      objectReference: {fileID: 0}
    - target: {fileID: 4637328107831482, guid: 8d53a262cf39ba04bb69f9423ee4813e, type: 2}
      propertyPath: m_LocalPosition.z
      value: 0
      objectReference: {fileID: 0}
    - target: {fileID: 4637328107831482, guid: 8d53a262cf39ba04bb69f9423ee4813e, type: 2}
      propertyPath: m_LocalRotation.x
      value: 0
      objectReference: {fileID: 0}
    - target: {fileID: 4637328107831482, guid: 8d53a262cf39ba04bb69f9423ee4813e, type: 2}
      propertyPath: m_LocalRotation.y
      value: 0
      objectReference: {fileID: 0}
    - target: {fileID: 4637328107831482, guid: 8d53a262cf39ba04bb69f9423ee4813e, type: 2}
      propertyPath: m_LocalRotation.z
      value: 0
      objectReference: {fileID: 0}
    - target: {fileID: 4637328107831482, guid: 8d53a262cf39ba04bb69f9423ee4813e, type: 2}
      propertyPath: m_LocalRotation.w
      value: 1
      objectReference: {fileID: 0}
    - target: {fileID: 4637328107831482, guid: 8d53a262cf39ba04bb69f9423ee4813e, type: 2}
      propertyPath: m_RootOrder
      value: 17
      objectReference: {fileID: 0}
    - target: {fileID: 4637328107831482, guid: 8d53a262cf39ba04bb69f9423ee4813e, type: 2}
      propertyPath: m_LocalScale.x
      value: 0.1
      objectReference: {fileID: 0}
    - target: {fileID: 4637328107831482, guid: 8d53a262cf39ba04bb69f9423ee4813e, type: 2}
      propertyPath: m_LocalScale.y
      value: 0.5
      objectReference: {fileID: 0}
    - target: {fileID: 1952469506270768, guid: 8d53a262cf39ba04bb69f9423ee4813e, type: 2}
      propertyPath: m_Name
      value: webbable (1)
      objectReference: {fileID: 0}
    - target: {fileID: 212536985337987760, guid: 8d53a262cf39ba04bb69f9423ee4813e,
        type: 2}
      propertyPath: m_SortingLayerID
      value: 64494287
      objectReference: {fileID: 0}
    - target: {fileID: 212536985337987760, guid: 8d53a262cf39ba04bb69f9423ee4813e,
        type: 2}
      propertyPath: m_SortingLayer
      value: 1
      objectReference: {fileID: 0}
    - target: {fileID: 114282512835830560, guid: 8d53a262cf39ba04bb69f9423ee4813e,
        type: 2}
      propertyPath: IsSticky
      value: 1
      objectReference: {fileID: 0}
    m_RemovedComponents: []
  m_ParentPrefab: {fileID: 100100000, guid: 8d53a262cf39ba04bb69f9423ee4813e, type: 2}
  m_IsPrefabParent: 0
--- !u!1001 &1884196732
Prefab:
  m_ObjectHideFlags: 0
  serializedVersion: 2
  m_Modification:
    m_TransformParent: {fileID: 0}
    m_Modifications:
    - target: {fileID: 4637328107831482, guid: 8d53a262cf39ba04bb69f9423ee4813e, type: 2}
      propertyPath: m_LocalPosition.x
      value: 2.75
      objectReference: {fileID: 0}
    - target: {fileID: 4637328107831482, guid: 8d53a262cf39ba04bb69f9423ee4813e, type: 2}
      propertyPath: m_LocalPosition.y
      value: 10.2
      objectReference: {fileID: 0}
    - target: {fileID: 4637328107831482, guid: 8d53a262cf39ba04bb69f9423ee4813e, type: 2}
      propertyPath: m_LocalPosition.z
      value: 0
      objectReference: {fileID: 0}
    - target: {fileID: 4637328107831482, guid: 8d53a262cf39ba04bb69f9423ee4813e, type: 2}
      propertyPath: m_LocalRotation.x
      value: 0
      objectReference: {fileID: 0}
    - target: {fileID: 4637328107831482, guid: 8d53a262cf39ba04bb69f9423ee4813e, type: 2}
      propertyPath: m_LocalRotation.y
      value: 0
      objectReference: {fileID: 0}
    - target: {fileID: 4637328107831482, guid: 8d53a262cf39ba04bb69f9423ee4813e, type: 2}
      propertyPath: m_LocalRotation.z
      value: 0
      objectReference: {fileID: 0}
    - target: {fileID: 4637328107831482, guid: 8d53a262cf39ba04bb69f9423ee4813e, type: 2}
      propertyPath: m_LocalRotation.w
      value: 1
      objectReference: {fileID: 0}
    - target: {fileID: 4637328107831482, guid: 8d53a262cf39ba04bb69f9423ee4813e, type: 2}
      propertyPath: m_RootOrder
      value: 22
      objectReference: {fileID: 0}
    - target: {fileID: 4637328107831482, guid: 8d53a262cf39ba04bb69f9423ee4813e, type: 2}
      propertyPath: m_LocalScale.x
      value: 0.1
      objectReference: {fileID: 0}
    - target: {fileID: 4637328107831482, guid: 8d53a262cf39ba04bb69f9423ee4813e, type: 2}
      propertyPath: m_LocalScale.y
      value: 0.5
      objectReference: {fileID: 0}
    - target: {fileID: 1952469506270768, guid: 8d53a262cf39ba04bb69f9423ee4813e, type: 2}
      propertyPath: m_Name
      value: webbable (5)
      objectReference: {fileID: 0}
    - target: {fileID: 212536985337987760, guid: 8d53a262cf39ba04bb69f9423ee4813e,
        type: 2}
      propertyPath: m_SortingLayerID
      value: 64494287
      objectReference: {fileID: 0}
    - target: {fileID: 212536985337987760, guid: 8d53a262cf39ba04bb69f9423ee4813e,
        type: 2}
      propertyPath: m_SortingLayer
      value: 1
      objectReference: {fileID: 0}
    - target: {fileID: 114282512835830560, guid: 8d53a262cf39ba04bb69f9423ee4813e,
        type: 2}
      propertyPath: IsSticky
      value: 1
      objectReference: {fileID: 0}
    m_RemovedComponents: []
  m_ParentPrefab: {fileID: 100100000, guid: 8d53a262cf39ba04bb69f9423ee4813e, type: 2}
  m_IsPrefabParent: 0
--- !u!1001 &1940750419
Prefab:
  m_ObjectHideFlags: 0
  serializedVersion: 2
  m_Modification:
    m_TransformParent: {fileID: 0}
    m_Modifications:
    - target: {fileID: 4218508266327450, guid: eb861781884145a4ab1a0ccf39ffddad, type: 2}
      propertyPath: m_LocalPosition.x
      value: -0.75
      objectReference: {fileID: 0}
    - target: {fileID: 4218508266327450, guid: eb861781884145a4ab1a0ccf39ffddad, type: 2}
      propertyPath: m_LocalPosition.y
      value: -3.716
      objectReference: {fileID: 0}
    - target: {fileID: 4218508266327450, guid: eb861781884145a4ab1a0ccf39ffddad, type: 2}
      propertyPath: m_LocalPosition.z
      value: 0.029296875
      objectReference: {fileID: 0}
    - target: {fileID: 4218508266327450, guid: eb861781884145a4ab1a0ccf39ffddad, type: 2}
      propertyPath: m_LocalRotation.x
      value: 0
      objectReference: {fileID: 0}
    - target: {fileID: 4218508266327450, guid: eb861781884145a4ab1a0ccf39ffddad, type: 2}
      propertyPath: m_LocalRotation.y
      value: -0
      objectReference: {fileID: 0}
    - target: {fileID: 4218508266327450, guid: eb861781884145a4ab1a0ccf39ffddad, type: 2}
      propertyPath: m_LocalRotation.z
      value: 0.3007059
      objectReference: {fileID: 0}
    - target: {fileID: 4218508266327450, guid: eb861781884145a4ab1a0ccf39ffddad, type: 2}
      propertyPath: m_LocalRotation.w
      value: -0.953717
      objectReference: {fileID: 0}
    - target: {fileID: 4218508266327450, guid: eb861781884145a4ab1a0ccf39ffddad, type: 2}
      propertyPath: m_RootOrder
      value: 4
      objectReference: {fileID: 0}
    - target: {fileID: 4218508266327450, guid: eb861781884145a4ab1a0ccf39ffddad, type: 2}
      propertyPath: m_LocalScale.x
      value: 1.7
      objectReference: {fileID: 0}
    - target: {fileID: 4218508266327450, guid: eb861781884145a4ab1a0ccf39ffddad, type: 2}
      propertyPath: m_LocalEulerAnglesHint.z
      value: 325
      objectReference: {fileID: 0}
    m_RemovedComponents: []
  m_ParentPrefab: {fileID: 100100000, guid: eb861781884145a4ab1a0ccf39ffddad, type: 2}
  m_IsPrefabParent: 0
--- !u!1001 &2063169391
Prefab:
  m_ObjectHideFlags: 0
  serializedVersion: 2
  m_Modification:
    m_TransformParent: {fileID: 0}
    m_Modifications:
    - target: {fileID: 4637328107831482, guid: 8d53a262cf39ba04bb69f9423ee4813e, type: 2}
      propertyPath: m_LocalPosition.x
      value: 2.31
      objectReference: {fileID: 0}
    - target: {fileID: 4637328107831482, guid: 8d53a262cf39ba04bb69f9423ee4813e, type: 2}
      propertyPath: m_LocalPosition.y
      value: 3.908
      objectReference: {fileID: 0}
    - target: {fileID: 4637328107831482, guid: 8d53a262cf39ba04bb69f9423ee4813e, type: 2}
      propertyPath: m_LocalPosition.z
      value: 0
      objectReference: {fileID: 0}
    - target: {fileID: 4637328107831482, guid: 8d53a262cf39ba04bb69f9423ee4813e, type: 2}
      propertyPath: m_LocalRotation.x
      value: 0
      objectReference: {fileID: 0}
    - target: {fileID: 4637328107831482, guid: 8d53a262cf39ba04bb69f9423ee4813e, type: 2}
      propertyPath: m_LocalRotation.y
      value: 0
      objectReference: {fileID: 0}
    - target: {fileID: 4637328107831482, guid: 8d53a262cf39ba04bb69f9423ee4813e, type: 2}
      propertyPath: m_LocalRotation.z
      value: 0
      objectReference: {fileID: 0}
    - target: {fileID: 4637328107831482, guid: 8d53a262cf39ba04bb69f9423ee4813e, type: 2}
      propertyPath: m_LocalRotation.w
      value: 1
      objectReference: {fileID: 0}
    - target: {fileID: 4637328107831482, guid: 8d53a262cf39ba04bb69f9423ee4813e, type: 2}
      propertyPath: m_RootOrder
      value: 20
      objectReference: {fileID: 0}
    - target: {fileID: 4637328107831482, guid: 8d53a262cf39ba04bb69f9423ee4813e, type: 2}
      propertyPath: m_LocalScale.x
      value: 0.1
      objectReference: {fileID: 0}
    - target: {fileID: 4637328107831482, guid: 8d53a262cf39ba04bb69f9423ee4813e, type: 2}
      propertyPath: m_LocalScale.y
      value: 0.5
      objectReference: {fileID: 0}
    - target: {fileID: 1952469506270768, guid: 8d53a262cf39ba04bb69f9423ee4813e, type: 2}
      propertyPath: m_Name
      value: webbable (4)
      objectReference: {fileID: 0}
    - target: {fileID: 212536985337987760, guid: 8d53a262cf39ba04bb69f9423ee4813e,
        type: 2}
      propertyPath: m_SortingLayerID
      value: 64494287
      objectReference: {fileID: 0}
    - target: {fileID: 212536985337987760, guid: 8d53a262cf39ba04bb69f9423ee4813e,
        type: 2}
      propertyPath: m_SortingLayer
      value: 1
      objectReference: {fileID: 0}
    - target: {fileID: 114282512835830560, guid: 8d53a262cf39ba04bb69f9423ee4813e,
        type: 2}
      propertyPath: IsSticky
      value: 1
      objectReference: {fileID: 0}
    m_RemovedComponents: []
  m_ParentPrefab: {fileID: 100100000, guid: 8d53a262cf39ba04bb69f9423ee4813e, type: 2}
  m_IsPrefabParent: 0
